&voteddiff=0&votedscore=0&name=The odd Castle&author=Suyo&score=3.94&difficulty=0&votes=17&votes1=17&votes2=0&code=50x30~0*28*2K2M0*28*2K2M0*28*2K2M0*28*2K2M0*28*2K2M0*28*2K2M0*28*2K2M0*28*2K2M0*28*2K2M0*28*2K2M0*28*2K2M0*28*2K2M0*28*2K2M0*28*2K2M0*28*2K2M0*28*2K2M0*28*2K2M0*28*2K2M0*28*2K2M0*28*2K2M0*28*2K2M0*28*2K2M0*28*2K2M0*28*2T2Z3d*25*8F0*2*3d*2*0*28*3d*2*0*28*3d*2*0*28*3d*2*0*28*3d*2*0*28*3d*2*0*28*3d*2*0*28*3d*2*0*28*3d*4*0*2*3d*21*0*2*3h3d*2*08@03Q8<8=8A0*17*8@0*2*3Q8<8=08@03Q8<8=8A0*17*8@0*2*3Q8<8=08@03Q8<8=8A0*17*8@0*2*3Q8<8=08@03Q8<8=8A0*17*8@0*2*3Q8<8=08@03Q8<8=8A0*17*8@0*2*3Q8<8=08@03Q8<8=8A0*17*8@0*2*3Q8<8=8F*2*0*2*8H8F8H0*17*8@0*2*3Q8<8=0*4*8A0*19*8@0*2*3Q8<8=0*4*8A0*19*8@0*2*3Q8<8=0*4*8A0*19*8@0*2*3Q8<8=0*4*8A0*19*8@0*2*3Q8<8=0*4*8A0*19*8@8F03Q8<8=0*4*8I8G*19*8B0*2*8I8H8F0*28*8I8G0*28*2S2Y0*28*2K2M~1,64,832,0,0,Right|34,816,88,1,0|34,889,397,1,0|112,808,168,0,0|113,836,233,0,0|115,828,267,0,0|114,794,284|078,16,760,30|078,104,736,30|078,192,760,30|078,288,720,30|078,352,752,30|078,448,720,30|078,544,744,30|078,632,728,30|29,744,792,1,90|29,752,816,1,90|29,760,856,1,90|06,912,784|06,880,592|06,912,432|06,912,112|06,880,272|06,880,-16|06,912,784|06,880,592|06,912,432|06,912,112|06,880,272|06,880,-16|06,912,784|06,880,592|06,912,432|06,912,112|06,880,272|06,880,-16|06,912,784|06,880,592|06,912,432|06,912,112|06,880,272|06,880,-16|06,912,784|06,880,592|06,912,432|06,912,112|06,880,272|06,880,-16|06,912,784|06,880,592|06,912,432|06,912,112|06,880,272|06,880,-16|064,912,112,1|064,880,272,1|064,912,432,1|064,880,592,1|064,912,784,1|064,880,-16,1|043,736,800,undefined,NaN|043,768,808,undefined,NaN|043,800,800,undefined,NaN|043,832,800,undefined,NaN|043,864,800|043,896,800|043,928,800|043,960,800|043,992,800,undefined,NaN|043,1024,800|043,1056,800,undefined,NaN|73,112,864,Hey%20everyone%2C%20Suyo%20here%2E%0DOooooh%2C%20look%20at%20that%20beautiful%20sky%20with%20all%20the%20stars%21%20But%20you%20can%27t%20collect%20them%20%28Gamer%20FTW%29%20%3AP%0D%20%0DAnyways%2C%20have%20you%20seen%20the%20level%20name%3F%20Also%2C%20the%20castle%20to%20the%20right%20looks%20odd%2E%2E%2E|73,816,864,Another%20visitor%21%0D%0D%0D%3Cb%3EStay%20a%20while%2E%0D%0D%3Ci%3EStaaaayy%20fooooreeeeeveeeeer%2E%3C%2Fi%3E%3C%2Fb%3E|18,824,784,-2,0|8,880,592,2,4,50,0,1|10,880,760|10,896,760|10,912,760|10,928,760|10,944,712|10,960,712|10,992,712|11,976,712|10,912,672|10,896,672|10,880,672|9,792,520,2,0,80,0,0,0,Right,none,0.5,40,1,Left,2,0,1|10,784,464|10,800,464|73,976,864,shh%2E%2E%2E%20I%27m%20not%20supposed%20to%20talk%20to%20you%2C%20but%20I%20am%20here%20now%20for%20like%202%20weeks%2e%20I%20heard%20you%20can%20escape%20this%20castle%20by%20pressing%20a%20switch%20somewhere%20up%20there%2E%20Sadly%2C%20I%27m%20too%20fat%2E%20Can%20you%20press%20that%20switch%20so%20we%20both%20can%20escape%3F|29,727,867,1,0|29,1512,868,1,0|28,1416,784,1,85|28,1424,816,1,85|73,1536,864,Whew%21%20That%20was%20great%21%20Thanks%20for%20rescuing%20me%2E%2E%2E%20You%20can%20have%20my%20shine%2C%20it%27s%20to%20the%20left%2E|6,1456,800|0113,1536,848,1,0|114,1536,888,1,0|114,1536,944,1,0|0113,976,856,1,0|114,984,896,1,0|114,984,952,1,0|74,1032,88,20|141,1552,48,1,180|141,1512,56,1,150|145,1304,88,1,0|145,1404,88,1,0|144,1449,88,1,0|24,968,320|25,896,256|071,1360,56,Both,0,3,100,0,1,0|0133,1360,80,1,90|73,1328,96,Out%20of%20order|140,1008,48,1,90|140,880,48,1,90|140,912,48,1,90|140,944,48,1,90|140,976,48,1,90,1,90|052,976,824,1,NaN|052,1536,816,1,NaN~4~3~The%20odd%20Castle&comment=(Crap with Code 1)

Well, you know SM63 by heart. But this is different. Welcome to SM63: Crap with Code.
Using my Level Code Documentation and Gamer's Item Disable Trick, you can do the best things ever. Just check this out.

Focus on these things:
* Levelname
* Stars
* Castle (can you escape through the entrace, is it dark in there?)
* Goomba (what the hell... you can talk to him?)
* Boo Lights (they look cool, no?) 
