&voteddiff=0&votedscore=0&name=&lt;font color=&quot;#800080&quot;&gt; Super Mario Bros.3 1-2&author=sonic classique&score=3&difficulty=0&votes=1&votes1=1&votes2=0&code=255x80~0*78*2K2M0*78*2K2M0*78*2K2M0*78*2K2M0*78*2K2M0*77*2e2g2M0*77*2c2M*2*0*76*2e2g2P2M0*76*2c2M*3*0*76*2K2M2O2M0*76*2K2M*3*0*76*2K2M*3*0*75*2e2g2M*3*0*75*2c2M2P2M*2*0*74*2e2g2O2M*2*2O0*74*2c2M*5*0*74*2K2M*5*0*74*2K2M*5*0*74*2K2M*5*0*74*2d2M*5*0*74*2f2h2M*4*0*75*2d2M*4*0*75*2f2l2M*3*0*76*2d2M*3*0*76*2f2l2M*2*0*77*2d2M*2*0*77*2j2h2M0*78*2K2M0*78*2K2M0*78*2K2M0*75*4F0*2*2K2M0*78*2T2Z0*238*2S2Y0*78*2K2M0*78*2K2M0*78*2K2M0*78*2K2M0*78*2K2M0*78*2K2O0*77*2e2g2M0*77*2c2M*2*0*76*2e2g2M*2*0*76*2c2M*3*0*76*2K2M*3*0*76*2T2Z2\2M0*75*2S2Y*2*2[2M0*75*2K2M*4*0*75*2b2M*2*2O2M0*73*3Q02f2h2M*3*0*73*3Q0*2*2d2M*3*0*76*2f2h2M*2*0*77*2b2M*2*0*71*3Q0*5*2f2h2M0*71*3Q0*2*3Q0*3*2K2M0*71*3Q0*2*3Q0*3*2K2M0*74*3Q0*3*2K2M0*78*2K2M0*73*4h0*2*3302K2M0*73*4h0*4*2K2M0*78*2K2M0*78*2K2M0*78*2K2M0*77*2e2g2M0*77*2L2N2M0*77*2L2N2M0*77*2a2M*2*0*76*2e2g2M*2*0*74*2S2Y2]2_2M*2*0*74*2K2M*5*0*73*2e2g2M*5*0*73*2c2M*6*0*72*2e2g2M*6*0*72*2c2M*7*0*71*2e2g2M*7*0*71*2L2N2M*7*0*71*2L2N2M*7*0*71*2f2h2M*7*0*72*2d2M*7*0*72*2f2h2M*6*0*73*2d2M*6*0*73*2f2h2M*5*0*74*2T2Z*3*2\2M0*78*2K2M0*75*330*2*2K2M0*78*2K2M0*75*330*2*2K2M0*77*2e2g2M0*77*2c2M*2*0*76*2e2g2M*2*0*76*2c2M*3*0*75*2e2g2M*3*0*75*2L2N2M*3*0*75*2L2N2M*3*0*75*2f2h2M*3*0*76*2d2M*3*0*76*2f2h2M*2*0*77*2d2M*2*0*77*2f2h2M0*78*2K2M0*78*2K2M0*78*2K2M0*78*2K2M0*78*2K2M0*78*2K2M0*74*330*3*2T2Z0*232*330*165*2S2Y0*70*330*7*2K2M0*78*2K2M0*78*2K2M0*78*2K2M0*78*2K2M0*78*2K2M0*78*2K2M0*78*2K2M0*78*2T2Z0*78*2S2Y0*77*2e2g2M0*77*2c2M*2*0*76*2e2g2M*2*0*76*2c2M*3*0*76*2K2M*3*0*76*2K2M*3*0*76*2d2M*3*0*76*2f2h2M*2*0*77*2d2M*2*0*77*2f2h2M0*78*2K2M0*78*2K2M0*78*2K2M0*78*2K2M0*78*2K2M0*78*2K2M0*78*:r*2*0*78*:r*2*0*78*:r*2*0*78*:r*2*0*78*:r*2*0*78*:r*2*0*78*:r*2*0*78*:r*2*0*78*:r*2*0*78*:r*2*0*53*:r*27*0*8480*~1,32,2432,0,0,Right|42,480,2320,0,270|41,536,2320,1,90|42,592,2320,1,90|51,445,2345,1|51,398,2370,1|51,356,2391,1|110,90,2485,1,0|108,117,2488,1,0|110,73,2497,1,0|108,72,2495,1,0|110,103,2461,1,0|110,255,2348,1,0|108,322,2331,1,0|110,467,2289,1,0|41,1098,2453,1,0|41,1098,2422,1,0|41,1098,2391,1,0|42,1098,2337,1,0|41,1097,2323,1,90|42,1041,2323,0,270|42,1151,2323,1,90|2,67,2437|2,116,2439|41,1471,2451,1,0|41,1471,2420,1,0|42,1471,2366,1,0|41,1890,2288,1,0|42,1890,2234,1,0|2,1807,2347|2,1777,2348|2,1741,2349|2,1616,2320|2,1585,2320|2,1710,2255|2,1746,2255|2,1776,2257|74,1904,2459,10|45,1888,2186,0,100,100,64,92,0,0,0|110,681,2337,1,0|109,860,2412,1,0|114,911,2437,1,0|114,911,2382,1,0|113,911,2340,1,0|110,1263,2415,1,0|109,1364,2367,1,0|110,1429,2347,1,0|104,1521,2331,1,0|106,1594,2385,1,0|107,1683,2420,1,0|108,1791,2398,1,0|110,1949,2414,1,0|109,2070,2392,1,0|108,2196,2270,1,0|107,2434,2214,1,0|109,2600,2268,1,0|108,2733,2399,1,0|107,2981,2339,1,0|51,2048,2440,1|51,2089,2441,1|51,2760,2455,1|51,3087,2410,1|51,3130,2432,1|41,3275,2452,1,0|42,3275,2397,1,0|41,3629,2451,1,0|41,3629,2421,1,0|42,3629,2393,1,0|108,3103,2371,1,0|107,3212,2424,1,0|110,3339,2413,1,0|109,3569,2408,1,0|110,3786,2411,1,0|108,3701,2401,1,0|108,3938,2365,1,0|42,3989,2386,0,270|42,4070,2386,1,90|43,4672,2445|6,4562,2369|73,4517,2463,%3Cfont%20face%3D%22dirty%20headline%22%20color%3D%22%23FF4000%22%3E%20You%20got%20a%20shine%20card%21%3C%2Ffont%3E|110,4307,2417,1,0|109,4139,2381,1,0~1~2~%3Cfont%20color%3D%22%23800080%22%3E%20SMB3%201%2D2&comment=Retro: SMB3 1-2
Replay that level from SMB3 on SM63, have a nice play.
And if you want, you can play that level with the alternate music
THE LINK TO THAT MUSIC:[url]http://www.youtube.com/watch?v=3cdOPafJP2A[/url]

[levelplayer=481550]255x80~0*78*2K2M0*78*2K2M0*78*2K2M0*78*2K2M0*78*2K2M0*77*2e2g2M0*77*2c2M*2*0*76*2e2g2P2M0*76*2c2M*3*0*76*2K2M2O2M0*76*2K2M*3*0*76*2K2M*3*0*75*2e2g2M*3*0*75*2c2M2P2M*2*0*74*2e2g2O2M*2*2O0*74*2c2M*5*0*74*2K2M*5*0*74*2K2M*5*0*74*2K2M*5*0*74*2d2M*5*0*74*2f2h2M*4*0*75*2d2M*4*0*75*2f2l2M*3*0*76*2d2M*3*0*76*2f2l2M*2*0*77*2d2M*2*0*77*2j2h2M0*78*2K2M0*78*2K2M0*78*2K2M0*75*4F0*2*2K2M0*78*2T2Z0*238*2S2Y0*78*2K2M0*78*2K2M0*78*2K2M0*78*2K2M0*78*2K2M0*78*2K2O0*77*2e2g2M0*77*2c2M*2*0*76*2e2g2M*2*0*76*2c2M*3*0*76*2K2M*3*0*76*2T2Z2\2M0*75*2S2Y*2*2[2M0*75*2K2M*4*0*75*2b2M*2*2O2M0*73*3Q02f2h2M*3*0*73*3Q0*2*2d2M*3*0*76*2f2h2M*2*0*77*2b2M*2*0*71*3Q0*5*2f2h2M0*71*3Q0*2*3Q0*3*2K2M0*71*3Q0*2*3Q0*3*2K2M0*74*3Q0*3*2K2M0*78*2K2M0*73*4h0*2*3302K2M0*73*4h0*4*2K2M0*78*2K2M0*78*2K2M0*78*2K2M0*77*2e2g2M0*77*2L2N2M0*77*2L2N2M0*77*2a2M*2*0*76*2e2g2M*2*0*74*2S2Y2]2_2M*2*0*74*2K2M*5*0*73*2e2g2M*5*0*73*2c2M*6*0*72*2e2g2M*6*0*72*2c2M*7*0*71*2e2g2M*7*0*71*2L2N2M*7*0*71*2L2N2M*7*0*71*2f2h2M*7*0*72*2d2M*7*0*72*2f2h2M*6*0*73*2d2M*6*0*73*2f2h2M*5*0*74*2T2Z*3*2\2M0*78*2K2M0*75*330*2*2K2M0*78*2K2M0*75*330*2*2K2M0*77*2e2g2M0*77*2c2M*2*0*76*2e2g2M*2*0*76*2c2M*3*0*75*2e2g2M*3*0*75*2L2N2M*3*0*75*2L2N2M*3*0*75*2f2h2M*3*0*76*2d2M*3*0*76*2f2h2M*2*0*77*2d2M*2*0*77*2f2h2M0*78*2K2M0*78*2K2M0*78*2K2M0*78*2K2M0*78*2K2M0*78*2K2M0*74*330*3*2T2Z0*232*330*165*2S2Y0*70*330*7*2K2M0*78*2K2M0*78*2K2M0*78*2K2M0*78*2K2M0*78*2K2M0*78*2K2M0*78*2K2M0*78*2T2Z0*78*2S2Y0*77*2e2g2M0*77*2c2M*2*0*76*2e2g2M*2*0*76*2c2M*3*0*76*2K2M*3*0*76*2K2M*3*0*76*2d2M*3*0*76*2f2h2M*2*0*77*2d2M*2*0*77*2f2h2M0*78*2K2M0*78*2K2M0*78*2K2M0*78*2K2M0*78*2K2M0*78*2K2M0*78*:r*2*0*78*:r*2*0*78*:r*2*0*78*:r*2*0*78*:r*2*0*78*:r*2*0*78*:r*2*0*78*:r*2*0*78*:r*2*0*78*:r*2*0*53*:r*27*0*8480*~1,32,2432,0,0,Right|42,480,2320,0,270|41,536,2320,1,90|42,592,2320,1,90|51,445,2345,1|51,398,2370,1|51,356,2391,1|110,90,2485,1,0|108,117,2488,1,0|110,73,2497,1,0|108,72,2495,1,0|110,103,2461,1,0|110,255,2348,1,0|108,322,2331,1,0|110,467,2289,1,0|41,1098,2453,1,0|41,1098,2422,1,0|41,1098,2391,1,0|42,1098,2337,1,0|41,1097,2323,1,90|42,1041,2323,0,270|42,1151,2323,1,90|2,67,2437|2,116,2439|41,1471,2451,1,0|41,1471,2420,1,0|42,1471,2366,1,0|41,1890,2288,1,0|42,1890,2234,1,0|2,1807,2347|2,1777,2348|2,1741,2349|2,1616,2320|2,1585,2320|2,1710,2255|2,1746,2255|2,1776,2257|74,1904,2459,10|45,1888,2186,0,100,100,64,92,0,0,0|110,681,2337,1,0|109,860,2412,1,0|114,911,2437,1,0|114,911,2382,1,0|113,911,2340,1,0|110,1263,2415,1,0|109,1364,2367,1,0|110,1429,2347,1,0|104,1521,2331,1,0|106,1594,2385,1,0|107,1683,2420,1,0|108,1791,2398,1,0|110,1949,2414,1,0|109,2070,2392,1,0|108,2196,2270,1,0|107,2434,2214,1,0|109,2600,2268,1,0|108,2733,2399,1,0|107,2981,2339,1,0|51,2048,2440,1|51,2089,2441,1|51,2760,2455,1|51,3087,2410,1|51,3130,2432,1|41,3275,2452,1,0|42,3275,2397,1,0|41,3629,2451,1,0|41,3629,2421,1,0|42,3629,2393,1,0|108,3103,2371,1,0|107,3212,2424,1,0|110,3339,2413,1,0|109,3569,2408,1,0|110,3786,2411,1,0|108,3701,2401,1,0|108,3938,2365,1,0|42,3989,2386,0,270|42,4070,2386,1,90|43,4672,2445|6,4562,2369|73,4517,2463,%3Cfont%20face%3D%22dirty%20headline%22%20color%3D%22%23FF4000%22%3E%20You%20got%20a%20shine%20card%21%3C%2Ffont%3E|110,4307,2417,1,0|109,4139,2381,1,0~1~2~%3Cfont%20color%3D%22%23800080%22%3E%20SMB3%201%2D2[/levelplayer]

[code]255x80~0*78*2K2M0*78*2K2M0*78*2K2M0*78*2K2M0*78*2K2M0*77*2e2g2M0*77*2c2M*2*0*76*2e2g2P2M0*76*2c2M*3*0*76*2K2M2O2M0*76*2K2M*3*0*76*2K2M*3*0*75*2e2g2M*3*0*75*2c2M2P2M*2*0*74*2e2g2O2M*2*2O0*74*2c2M*5*0*74*2K2M*5*0*74*2K2M*5*0*74*2K2M*5*0*74*2d2M*5*0*74*2f2h2M*4*0*75*2d2M*4*0*75*2f2l2M*3*0*76*2d2M*3*0*76*2f2l2M*2*0*77*2d2M*2*0*77*2j2h2M0*78*2K2M0*78*2K2M0*78*2K2M0*75*4F0*2*2K2M0*78*2T2Z0*238*2S2Y0*78*2K2M0*78*2K2M0*78*2K2M0*78*2K2M0*78*2K2M0*78*2K2O0*77*2e2g2M0*77*2c2M*2*0*76*2e2g2M*2*0*76*2c2M*3*0*76*2K2M*3*0*76*2T2Z2\2M0*75*2S2Y*2*2[2M0*75*2K2M*4*0*75*2b2M*2*2O2M0*73*3Q02f2h2M*3*0*73*3Q0*2*2d2M*3*0*76*2f2h2M*2*0*77*2b2M*2*0*71*3Q0*5*2f2h2M0*71*3Q0*2*3Q0*3*2K2M0*71*3Q0*2*3Q0*3*2K2M0*74*3Q0*3*2K2M0*78*2K2M0*73*4h0*2*3302K2M0*73*4h0*4*2K2M0*78*2K2M0*78*2K2M0*78*2K2M0*77*2e2g2M0*77*2L2N2M0*77*2L2N2M0*77*2a2M*2*0*76*2e2g2M*2*0*74*2S2Y2]2_2M*2*0*74*2K2M*5*0*73*2e2g2M*5*0*73*2c2M*6*0*72*2e2g2M*6*0*72*2c2M*7*0*71*2e2g2M*7*0*71*2L2N2M*7*0*71*2L2N2M*7*0*71*2f2h2M*7*0*72*2d2M*7*0*72*2f2h2M*6*0*73*2d2M*6*0*73*2f2h2M*5*0*74*2T2Z*3*2\2M0*78*2K2M0*75*330*2*2K2M0*78*2K2M0*75*330*2*2K2M0*77*2e2g2M0*77*2c2M*2*0*76*2e2g2M*2*0*76*2c2M*3*0*75*2e2g2M*3*0*75*2L2N2M*3*0*75*2L2N2M*3*0*75*2f2h2M*3*0*76*2d2M*3*0*76*2f2h2M*2*0*77*2d2M*2*0*77*2f2h2M0*78*2K2M0*78*2K2M0*78*2K2M0*78*2K2M0*78*2K2M0*78*2K2M0*74*330*3*2T2Z0*232*330*165*2S2Y0*70*330*7*2K2M0*78*2K2M0*78*2K2M0*78*2K2M0*78*2K2M0*78*2K2M0*78*2K2M0*78*2K2M0*78*2T2Z0*78*2S2Y0*77*2e2g2M0*77*2c2M*2*0*76*2e2g2M*2*0*76*2c2M*3*0*76*2K2M*3*0*76*2K2M*3*0*76*2d2M*3*0*76*2f2h2M*2*0*77*2d2M*2*0*77*2f2h2M0*78*2K2M0*78*2K2M0*78*2K2M0*78*2K2M0*78*2K2M0*78*2K2M0*78*:r*2*0*78*:r*2*0*78*:r*2*0*78*:r*2*0*78*:r*2*0*78*:r*2*0*78*:r*2*0*78*:r*2*0*78*:r*2*0*78*:r*2*0*53*:r*27*0*8480*~1,32,2432,0,0,Right|42,480,2320,0,270|41,536,2320,1,90|42,592,2320,1,90|51,445,2345,1|51,398,2370,1|51,356,2391,1|110,90,2485,1,0|108,117,2488,1,0|110,73,2497,1,0|108,72,2495,1,0|110,103,2461,1,0|110,255,2348,1,0|108,322,2331,1,0|110,467,2289,1,0|41,1098,2453,1,0|41,1098,2422,1,0|41,1098,2391,1,0|42,1098,2337,1,0|41,1097,2323,1,90|42,1041,2323,0,270|42,1151,2323,1,90|2,67,2437|2,116,2439|41,1471,2451,1,0|41,1471,2420,1,0|42,1471,2366,1,0|41,1890,2288,1,0|42,1890,2234,1,0|2,1807,2347|2,1777,2348|2,1741,2349|2,1616,2320|2,1585,2320|2,1710,2255|2,1746,2255|2,1776,2257|74,1904,2459,10|45,1888,2186,0,100,100,64,92,0,0,0|110,681,2337,1,0|109,860,2412,1,0|114,911,2437,1,0|114,911,2382,1,0|113,911,2340,1,0|110,1263,2415,1,0|109,1364,2367,1,0|110,1429,2347,1,0|104,1521,2331,1,0|106,1594,2385,1,0|107,1683,2420,1,0|108,1791,2398,1,0|110,1949,2414,1,0|109,2070,2392,1,0|108,2196,2270,1,0|107,2434,2214,1,0|109,2600,2268,1,0|108,2733,2399,1,0|107,2981,2339,1,0|51,2048,2440,1|51,2089,2441,1|51,2760,2455,1|51,3087,2410,1|51,3130,2432,1|41,3275,2452,1,0|42,3275,2397,1,0|41,3629,2451,1,0|41,3629,2421,1,0|42,3629,2393,1,0|108,3103,2371,1,0|107,3212,2424,1,0|110,3339,2413,1,0|109,3569,2408,1,0|110,3786,2411,1,0|108,3701,2401,1,0|108,3938,2365,1,0|42,3989,2386,0,270|42,4070,2386,1,90|43,4672,2445|6,4562,2369|73,4517,2463,%3Cfont%20face%3D%22dirty%20headline%22%20color%3D%22%23FF4000%22%3E%20You%20got%20a%20shine%20card%21%3C%2Ffont%3E|110,4307,2417,1,0|109,4139,2381,1,0~1~2~%3Cfont%20color%3D%22%23800080%22%3E%20SMB3%201%2D2[/code] 
