&voteddiff=0&votedscore=0&name=Star Volcano - Boss Fight&author=PowerStar856190&score=0&difficulty=0&votes=0&votes1=0&votes2=0&code=80x70~0*69*8<0*69*8<0*66*4y0*2*8<0*66*4x4y08<0*66*4x*2*08<0*66*4x*2*08<0*66*4x*2*08<0*66*4x*2*08<0*66*4x*2*08<0*59*:P3d4K3m0*3*4x*2*08<0*59*3d:P3m4K0*3*4x*2*08<0*59*:P3d4K3m0*3*4x*2*08<0*59*3d:P3m4K0*3*4x*2*08<0*59*:P3d4K3m0*3*4x*2*08<0*66*4x*2*08<0*66*4x*2*08<0*66*4x*2*08<0*66*4x*2*08<0*66*4x*2*08<0*66*4x4z08<0*66*4z0*2*8<0*69*8<0*69*8<7d*70*0*113*7d*12*0*15*7d*70*0*53*34*10*927d927d927d920*53*34*10*7d927d927d927d0*53*34*10*927d927d927d920*53*34*10*7d927d927d927d0*63*927d927d927d920*63*7d927d927d927d0*63*927d927d927d920*63*7d927d927d927d0*63*927d927d927d920*63*7d927d927d927d0*63*927d927d927d920*63*7d927d927d927d0*63*927d927d927d920*63*7d927d927d927d0*63*927d927d927d920*63*7d927d927d927d0*63*927d927d927d920*63*7d927d927d927d0*63*927d927d927d920*68*8<8=0*68*8<8=0*68*7d*2*0*68*7d*2*0*68*7d*2*0*68*7d*2*0*68*7d*2*0*68*7d*2*0*68*7d*2*0*68*8<8=0*68*8<8=0*40*7d*30*0*68*7d*2*0*65*920*2*7d*2*0*64*927d9207d*2*0*64*7d927d07d*2*0*64*927d9207d*2*0*65*920*2*7d*2*0*67*7d*3*0*69*7d0*67*7d07d0*67*7d07d0*17*3Q03Q0*42*3Q0*4*7d07d0*11*3Q0*8*3Q0*2*3Q0*20*3Q0*10*3Q0*3*3Q03Q*2*0*2*7d07d07d4K*8*0*9*3Q0*8*3Q0*5*3Q0*3*3Q0*3*3Q0*7*3Q0*4*3Q0*3*3Q0*4*3Q07d927d*2*07e0*4*4K*2*03Q0*4*3Q0*2*3Q0*2*3Q0*2*3Q0*2*3Q0*20*3Q0*6*3Q0*7*3Q03Q0927d927d*3*0*2*4K0*4*4K0*9*3Q0*8*3Q0*3*3Q0*7*3Q0*3*3Q0*7*3Q0*4*3Q0*8*7d927d*4*0*2*4K03Q0*4*3Q0*4*3Q0*4*3Q0*3*3Q0*10*3Q0*12*3Q0*16*3Q7d3Q7d32*2*0*2*4K*6*0*4*3Q0*51*3Q*3*32*3*0*2*4K0*14*3Q0*46*3Q*3*32*3*0*2*4K0*50*7d3Q7d3Q7d3Q7d3Q7d3Q7d3Q*3*32*3*0*2*4K0*50*3Q7d3Q7d3Q7d3Q7d3Q7d3Q7d3Q*2*7d32*2*4K*3*0*50*7d3Q7d3Q7d3Q7d3Q7d3Q7d3Q*2*7d*4*4K*3*0*50*3Q*8*7d*9*~1,1024,1962,0,0,Right|59,1120,1872,1|59,1184,1880,1|59,1176,1936,1|59,1128,1944,1|40,1600,2104,1888,1992|55,1584,1968,0|51,2160,2104,1|55,2128,2032,0|71,840,1912,Right,0,9,0,0,7,1|71,839,1936,Right,0,9,0,0,3,1|71,1232,2032,Right,270,9,0,0,8,1|4,1584,2096|4,1616,2096|74,2224,2184,99|43,768,2085|71,248,1944,Left,0,7,170,0,1,1|29,432,1896,1,20|26,280,1848|27,280,1848|27,400,1848|26,400,1848|29,240,1896,1,345|71,456,1904,Right,90,5,50,0,3,0|71,208,1904,Left,270,5,50,0,2,0|45,24,2160,0,100,100,64,92,0,0,0|45,656,2160,0,100,100,64,92,0,0,0|82,2192,2032|71,336,1848,Both,0,8,150,0,6,1|71,424,1944,Right,0,7,170,0,1,1|40,2432,24,336,2024|71,336,1824,Both,0,9,100,0,5,1|61,560,2056,0|45,592,2032,0,100,100,64,92,0,0,0|45,80,2032,0,100,100,64,92,0,0,0|4,464,2000|4,496,2000|4,496,1968|4,528,1968|4,216,1992|4,248,1992|4,184,1960|4,152,1928|6,336,1792~13~8~Star%20Volcano%20%2D%20Boss%20Fight&comment=The Bully King stole the Shine Sprite in Star Volcano! Defeat him before he uses the Shine Sprite to destroy the Mushroom Kingdom!
Shine Sprites: 1
Hover FLUDD: 1
Rocket FLUDD: 0
Turbo FLUDD: 0
1-Up Mushrooms: 0
Music: Boss Fight 2 from Super Mario Galaxy
Difficulty: Medium
Boss Difficulty: Hard 
