&voteddiff=0&votedscore=0&name=Automatic Mario&author=PowerStar856190&score=1&difficulty=0&votes=1&votes1=1&votes2=0&code=84x30~0*22*:P3m:P3m:P3m:P0*23*4K3v*5*4K0*23*3d3v*5*3d0*23*4K3v*5*4K0*23*3d3v*5*3d0*23*4K3v*5*4K0*23*3d3v*5*3d0*23*4K3v*5*4K0*23*:P3m:P3m:P3m:P0*233*3d0*29*3d0*2*3d*5*0*22*3d4K*3*0*2*3d*2*0*28*4K*2*0*22*3d0*5*3d*2*0*18*3d*5*4K*3*0*2*3d*2*0*28*3d*2*0*28*3d*2*0*28*3d*2*0*28*3d*2*0*28*3d*2*0*27*3e3d*2*0*28*3d*2*0*28*3d*2*0*28*3d*2*0*28*3d*2*0*28*3d*2*0*28*3d*2*0*28*3d*2*0*28*3d*2*0*28*3d*2*0*28*3d*2*0*28*3d*2*0*28*3d*2*0*28*3d*2*0*28*3d*2*0*28*3d*2*0*28*3d*2*0*28*3d*2*0*28*3d*2*0*28*3d*2*0*28*3d*2*0*24*3d*3*03d*2*0*28*3d*2*0*26*3d*4*0*110*3d*4*0*4*3d0*21*3d0*2*3d03d*2*03d0*21*3d0*2*3d*3*3f0*23*3d0*2*3d0*26*3d0*2*3d0*26*3d0*2*3d0*26*3d0*2*3d0*26*3d0*2*3d*5*0*22*3d0*2*3d0*3*3d*3*0*20*3d0*2*3d0*3*3d*3*0*20*3d0*2*3d0*3*3d*3*0*20*3d0*2*3d0*3*3d*3*0*20*3d0*2*3d0*3*3d*3*0*23*3d*7*0*480*~1,64,832,0,0,Right|73,64,856,Welcome%20to%20Automatic%20Mario%21%0DEnter%20the%20pipe%2E|40,208,824,336,752|7,336,776,3,0,30,0,0,0,Right,none,0.5,1,1,25|7,419,775,0,9,0,40,0,0,none,Up,0.5,1,1,25|7,416,680,3,0,30,0,0,0,Right,none,0.5,1,1,25|7,496,680,4,0,30,0,0,0,Right,none,0.5,1,1,25|7,592,688,0,2,0,40,0,0,none,Down,0.5,1,1,25|7,1800,888,3,0,10,0,0,0,Right,none,0.5,1,1,10|7,2092,834,0,4,0,20,0,0,none,Up,0.5,1,1,20|7,592,856,3,0,100,0,0,0,Right,none,0.5,1,1,100|7,2040,832,3,0,30,0,0,0,Right,none,0.5,1,1,25|45,435,727,0,222200,22220000,-1,92,1,0,0|7,880,872,3,0,250,0,0,0,Right,none,0.5,1,1,250|7,1552,871,0,2,0,80,0,0,none,Up,0.5,1,1,80|7,1552,800,3,0,40,0,0,0,Right,none,0.5,1,1,40|57,1656,824,1|7,1656,776,3,0,30,0,0,0,Right,none,0.5,1,1,25|11,1720,816|7,1720,872,3,0,35,0,0,0,Right,none,0.5,1,1,35|7,2096,768,4,0,20,0,0,0,Left,none,0.5,1,1,20|43,1952,908|7,1824,936,3,0,90,0,0,0,Right,none,0.5,1,1,90|6,2064,760|45,423,736,0,222200,22220000,-1,92,1,0,0~3~3~Automatic%20Mario&comment=A portal appeared outside the castle and  it warped Mario into a place called Automatic Mario. Do not press any key after you enter the pipe.
Shine Sprites: 1
FLUDDs: 0
1-Up Mushrooms: 0
Music: Secret Course from Super Mario 64(Remixed by m477zorz)
Difficulty: Very Easy 
