&voteddiff=0&votedscore=0&name=Galaxy 63: Level 2&author=YoshiDude&score=0&difficulty=0&votes=0&votes1=0&votes2=0&code=100x30~0*27*5355540*27*5355540*27*5355540*27*5355540*27*5355540*27*5355540*27*5355540*27*5355540*27*5355540*27*5355540*27*5355540*27*5355540*27*5355540*27*5355540*27*5355540*27*5355540*27*5355540*27*5355540*15*3f0*11*5355540*15*3d*7*3f0*4*5H54*2*0*15*3d3v*5*3{3v*4*3z5254*2*0*15*3d3v*5*413v*3*3z3d5254*2*0*15*3d3v*3*3{3v*4*3z3d*2*5254*2*0*15*3y3v*3*413v*4*3y3d*2*5254*2*0*15*3v*2*3{3v*7*3y3d5254*2*0*15*3z3v413v*8*3y5254*2*0*15*3d*7*3f0*4*5I54*2*0*15*3f0*11*5355540*27*5355540*27*5355540*27*5355540*27*5355540*27*5355540*27*5355540*27*5355540*27*5355540*27*5355540*27*5355540*27*5355540*27*5355540*27*5355540*27*5355540*27*5355540*27*5355540*27*5355540*27*5355540*27*5355540*27*5355540*27*5355540*27*5355540*27*5355540*27*5355540*27*5355540*27*5355540*27*5355540*27*5355540*27*5355540*27*5355540*27*5355540*27*5355540*27*5355540*27*5355540*27*5355540*27*5355540*27*5355540*27*5355540*27*5355540*27*5355540*27*5355540*27*5355540*27*5355540*27*5355540*27*5355540*27*5355540*27*5355540*27*5355540*27*5355540*27*5355540*27*5355540*27*5355540*27*5355540*27*5355540*27*5355540*27*5?5A5E0*29*530*29*530*29*530*29*530*29*530*29*530*29*530*29*530*29*530*27*5<5@5D0*27*5355540*27*5355540*27*5355540*27*5355540*27*5355540*27*535554~1,63,832,0,0,Right|6,704,382|73,115,852,Luma%3A%20Let%27s%20play%20hide%20and%20seek%21%20If%20you%20can%20find%20all%20three%20of%20us%2C%20I%27ll%20tell%20you%20about%20where%20you%20are%2E|73,63,852,Luma%3A%20Hey%2E%2E%2E%0DHEY%21%0DWake%20up%2C%20we%20want%20to%20play%21|123,226,840,0,0|123,861,839,1,0|123,1359,836,0,0|5,1345,842|43,1568,802|73,1314,848,You%20found%20me%3F%0DAw%2C%20I%20knew%20I%20should%20have%20hidden%20behind%20the%20warp%20pipe%2E|123,1329,836,1,0|123,1300,835,0,0|40,1090,813,2032,813|5,2047,841|40,2031,813,1090,813|73,2096,854,How%27d%20you%20find%20me%3F%0DMaybe%20I%20should%20have%20hidden%20in%20the%20crater%2E%2E%2E|5,2957,906|73,2864,912,Wow%2C%20you%20found%20all%20of%20us%21%0DMaybe%20you%20really%20can%20help%20Mama%2E|106,1678,829,1,0|107,999,814,1,0|37,3069,743,50,-75|73,2986,848,Get%20in%20and%20press%20and%20hold%20X%20to%20return%20to%20the%20other%20side%20of%20the%20planet%2E|141,1087,774,1,100|137,2433,837,1,0|136,2282,822,1,0|135,2813,900,1,0~4~13~Galaxy%2063%3A%20Level%202&comment=Super Mario Galaxy 63
Level 2: Find the Lumas.

By the way, in the first level, I put the start position in the wrong place.
If you want to play it right, just move it to the very beginning, on the sign before the big hill 
