&voteddiff=0&votedscore=0&name=Rotating Platforms Challenge&author=The new designer&score=3.5&difficulty=0&votes=2&votes1=2&votes2=0&code=25x250~0*234*4N4K0*13*3m0*235*4K0*13*3m0*235*4K0*13*3m0*235*4K0*13*3m0*234*4O4K0*13*3m0*159*3Q0*2*3Q0*86*3m0*157*3Q0*6*3Q0*84*3m0*249*3m0*155*3Q0*10*3Q0*252*3Q0*3*3Q0*3*3Q0*3*3Q0*3*3Q0*3*3Q0*3*3Q0*3*3Q0*3*3Q0*3*3Q0*3*3Q0*3*3Q0*3*3Q0*3*3Q0*3*3Q0*3*3Q0*3*3Q0*3*3Q0*3*3Q0*3*3Q0*2*2W2Y0*248*2c2M0*248*2K2O0*248*2d2P0*169*3Q0*3*3Q0*3*3Q0*3*3Q0*3*3Q0*3*3Q0*3*3Q0*3*3Q0*3*3Q0*3*3Q0*3*3Q0*3*3Q0*3*3Q0*3*3Q0*3*3Q0*3*3Q0*3*3Q0*3*3Q0*3*3Q0*3*3Q0*2*2X2Z0*155*3Q0*10*3Q0*332*3d0*157*3Q0*6*3Q0*84*3d0*159*3Q0*2*3Q0*86*3d0*249*3d0*249*3d0*249*3d0*249*3d0*249*3d0*249*3d0*249*3d~1,286,7912,0,0,Right|73,336,7904,Can%20you%20climb%20the%2020%20rotating%20platforms%3F%20Each%20time%2C%20they%20go%20faster%21%20NO%20CHECKPOINTS%21%20You%20will%20find%20some%20water%20bottles%20at%20the%20right%2E%20The%20last%20one%20is%20the%20biggest%20one%20and%20the%20fastest%2E%2E%2E|82,385,7900|8,338,7806,1,1,50,0,1|8,334,7683,2,1,50,0,1|8,335,7554,3,1,50,0,1|8,338,7425,4,1,50,0,1|8,337,7294,5,1,50,0,1|8,339,7164,6,1,50,0,1|8,338,7037,7,1,50,0,1|8,339,6908,8,1,50,0,1|76,496,7921|76,560,7922|76,527,7921|76,593,7922|76,624,7921|76,656,7921|6,720,7856|8,338,6781,9,1,50,0,1|8,338,6653,10,1,50,0,1|8,338,6522,11,1,50,0,1|8,339,6398,12,1,50,0,1|8,338,6268,13,1,50,0,1|8,337,6140,14,1,50,0,1|8,337,6015,15,1,50,0,1|8,338,5886,16,1,50,0,1|8,339,5760,17,1,50,0,1|8,338,5631,18,1,50,0,1|8,338,5505,19,1,50,0,1|8,337,5373,20,1,50,0,1|8,337,5118,10,9,170,0,1|5,347,4918|73,16,7935,EASIER%20MODE|73,112,7934,HARDER%20MODE|74,161,7927,9999|83,60,7916|37,48,7440,40,10~4~3~Rotating%20Platforms%20Challenge&comment=Can you climb 20 rotating platforms? The last one has a surprise!
LEFT -> Easier Mode and Harder Mode
RIGHT -> Water Store
CENTER -> Mountain 
