&voteddiff=0&votedscore=0&name=Mr Thwomp Gets a Little Angry&author=Pieman&score=2&difficulty=0&votes=1&votes1=1&votes2=0&code=75x30~0*27*9d*3*0*27*9e9d*2*0*28*9d*2*0*28*9d*2*0*28*9d*2*0*27*9e9d*2*0*28*9e9d0*28*9d*2*0*27*9d*3*0*27*9g9d*2*0*28*9d*2*0*27*9e9d*2*0*28*9d*2*0*26*9e9d*3*0*28*9e9d0*27*9e9d*2*0*25*9d*4*9f0*26*9g9d9f0*358*9e9d*2*0*28*9e9d0*27*9g9d*2*0*28*9e9d0*86*9d0*89*3Q*2*0*28*3Q03Q0*27*3Q0*52*3Q0*3*9e9d*6*0*19*3Q0*4*3Q*2*09e9d*2*0*19*3Q0*4*3Q03Q09e9d0*19*3Q*5*9d*2*:p09d*2*0*21*3Q*2*09e9d:p*2*9d9f0*22*3Q*3*9f0:p9d*2*0*23*3Q9d*2*:p09d0*26*9d0:p9d*2*0*28*9d9f0*27*9h9f0*27*9h9f0*28*9d0*29*9f0*29*9d0*29*9e0*29*9d0*29*9d0*382*9e9d0*28*9d*2*0*28*9d9f0*28*9e9d0*9*~1,64,832,0,0,Right|74,1104,792,4|57,678,753,1|59,154,651,1|72,199,776,1|72,338,768,1|59,60,644,1|59,240,602,1|9,-220,712,3,0,900,0,0,0,Right,none,3,400,13,Left,0,0,1|117,1437,844,1,0|116,1461,911,1,180|44,64,472,0,12,16,7,1,0.1,3,30,1|44,64,472,0,12,16,7,1,0.1,3,30,1|44,64,472,0,12,16,7,1,0.1,3,30,1|44,64,472,0,12,16,7,1,0.1,3,30,1|44,64,472,0,12,16,7,1,0.1,3,30,1|44,64,472,0,12,16,7,1,0.1,3,30,1|44,64,472,0,12,16,7,1,0.1,3,30,1|44,64,472,0,12,16,7,1,0.1,3,30,1|44,64,472,0,12,16,7,1,0.1,3,30,1|44,64,472,0,12,16,7,1,0.1,3,30,1|59,1498,851,1|54,944,870,1|141,571,751,1,75|141,771,750,1,105|5,963,798|5,674,705|5,1452,832|5,1533,719|72,1284,705,1|72,1340,657,1|72,1529,658,1|72,1497,827,1|72,1518,841,1|72,1022,880,1|72,939,847,1|72,922,822,1|72,536,764,1|42,2272,680,1,180|5,2272,704|33,2272,832,1,0|6,2272,784|4,2272,704|4,2272,704|4,2272,704|40,1824,760,2272,704~13~4~Mr%20Thwomp%20Gets%20a%20Little%20Angry&comment=Let's set the scene.

You have somehow managed to sneak up on Mr Thwomp's sky fortress. As the title intends, Mr Thwomp gets a little angry. Hold onto your pants. 
