&voteddiff=0&votedscore=0&name=Boo Planet Galaxy - Star 1&author=mario54321&score=0&difficulty=0&votes=0&votes1=0&votes2=0&code=216x30~0*28*9y*2*0*28*9y*2*0*28*9y*2*0*28*9y*2*0*28*9y*2*0*28*9y*2*0*27*:29y*2*0*26*:29y*3*0*25*:29y*4*0*24*:29y*5*0*23*:29y*6*0*267*:2:3*2*0*26*:29y:3:?0*26*9y*2*:3*2*0*26*9y*2*:3*2*0*26*9y*2*:3:?0*26*9y*2*:3*2*0*26*9y*2*:3*2*0*26*:19y:3:?0*27*:1:3*2*3d*60*:3*60*0*13*:3*5*:=*3*9d*3*:3*6*0*13*:3*5*9d*4*:=:9:3*6*0*13*:3*5*:=*3*9d*3*:3*6*0*13*:3*5*:=*6*:3*6*0*13*:3*5*:=*6*:3*6*0*13*:3*5*:=*6*:3*6*0*13*:3*5*:=*6*:3*6*0*13*:3*5*:=*6*:3*6*0*13*:3*5*:=*5*:<:3*6*0*13*:3*5*:=*4*:<:3*7*0*13*:3*5*:=*3*:<:3*8*0*13*:3*5*:=*3*:3*9*0*13*:3*5*:=*3*:3*9*0*13*:3*5*:=*3*:3*9*0*13*:3*5*:=*3*:3*9*0*13*:3*5*:=*3*:3*9*0*13*:3*5*:=*3*:3*9*0*7*:3*11*:=*3*:3*9*0*7*:3*11*:=*3*:3*9*0*7*:3*2*0*4*:3*5*:=*3*:3*9*0*7*:3*2*0*4*:3*17*0*7*:3*2*0*4*:3*17*0*7*:3*2*0*4*:3*17*0*396*:j0*2*:j0*25*:j:k0*2*:k:j0*23*:k*2*0*4*:k:j0*21*:j:k:j0*4*:j:k:j0*19*:j:k:j:k0*4*:k:j:k:j0*13*9d*3*0*29*9d0*2*:j:k:j:k0*4*:k:j:k:j0*13*9d*3*0*3*:j:k:j0*4*:j:k:j0*21*:j:k0*4*:k:j0*23*:j:k0*2*:k:j0*25*:j0*2*:j0*237*8783*3*0*25*87830*2*83*2*0*23*8783*2*0*2*8<83*2*0*16*9d0*4*8783*2*0*3*8<8=83*2*0*15*8<0*3*8783*2*0*4*8<8=*2*83*2*0*14*8<0*3*83*2*0*5*8<8=*18*8<0*3*8683*2*0*4*8<8=*2*83*2*0*14*8<0*4*8683*2*0*3*8<8=83*2*0*15*8<0*5*8683*2*0*2*8<83*2*0*16*9d0*6*86830*2*83*2*0*25*8683*3*0*924*7T*4*0*25*7T*2*0*2*37*2*0*23*7T*2*0*4*37*2*0*21*7T*2*0*6*37*2*0*29*370*20*7T*2*0*6*37*2*0*21*7T*2*0*4*37*2*0*23*7T*2*0*2*37*2*0*25*7T0*2*370*26*7T0*2*370*26*7T0*2*370*26*7T0*2*370*26*7T0*2*370*26*7T0*2*370*26*7T0*2*370*25*37*6*0*24*37*6*0*24*37*2*39*2*37*2*0*24*37*2*39*2*37*2*0*24*37*6*0*24*37*6*0*320*9y*24*0*4*9y*26*0*4*9y*2*:3*62*0*3*:3*27*0*3*:3*27*0*3*:3*27*0*3*:3*25*0*95*:O0*29*:O:E0*29*:E*2*0*58*:E*2*0*27*:O:E0*28*:O0*1284*~1,11,828,0,0,Right|64,5311,7,1|64,5406,253,1|73,128,864,Boo%20Planet%20Galaxy%0D%3FStar%201%3F%0DSilver%20Boo%20Planets|73,1360,384,25314|39,1336,384,1048,704,1|39,1272,384,1648,384,1|73,1296,384,53412|73,1232,384,53421|39,1208,384,720,896,1|73,1577,640,35124|43,928,824|73,1160,736,B4%20you%20enter%2C%20there%20are%203%20things%20that%20you%20must%20know%2E%20There%20are%205%20doors%20here%2C%20but%20only%201%20is%20the%20correct%20one%2E%20If%20you%20don%27t%20choose%202%20of%20my%20bullet%20bills%20may%20kill%20you%21%20The%20code%20is%20hidden%20somewhere%20in%20here%21|71,1648,576,Left,0,3,100,0,1,1|71,1648,624,Left,0,3,100,0,1,1|39,1360,640,720,896,1|73,1384,640,14532|39,1408,640,720,896,1|73,1432,640,43125|39,1456,640,1056,320,1|73,1480,640,43512|39,1504,640,720,896,1|73,1528,640,This is a sign...|39,1552,640,720,896,1|40,768,760,1114,718|45,1040,704,0,100,30,64,92,0,0,0|73,1104,384,What%3F%21%20How%20did%20you%2E%2E%2E%3F%202%20more%20challenges%20await%20you%2E%201%20thing%20is%20important%204%20this%20thing%2E%203%20doors%2E%20Hi%2D5%20me%20and%20invert%20all%20the%20stuff%2E|73,88,864,%2D%2D%2DINFORMATION%20ABOUT%20STARS%2D%2D%2D%0D%3FSTAR%201%3F%20%3D%20Secret%20Star%0D%3Cfont%20color%3D%22%2304B404%22%3EStar%201%3C%2Ffont%3E%3D%20Secret%20Green%20Star|9,400,757,3,0,40,0,0,0,Right,none,0.5,80,6,Left,3,0,1|44,688,640,0,12,16,7,1,0.1,3,30,1|44,1216,592,0,12,16,7,1,0.1,3,30,1|35,1440,56,1,0|6,1440,-8|3,1440,32|37,1680,320,30,85|38,2184,143,0,290,180|38,2277,50,0,100,350|64,2399,145,1|62,2387,235,1|63,2323,336,1|62,2429,222,1|64,2447,53,1|52,2189,112,1|51,2453,119,1|51,2225,88,1|5,2160,144|5,1616,365|40,2320,856,2881,58|42,2896,168,1,180|40,2896,24,2896,200|35,3096,256,1,0|35,3152,256,1,0|35,3216,256,1,0|35,3280,256,1,0|35,3344,256,1,0|35,3408,256,1,0|35,3472,256,1,0|35,3536,256,1,0|61,3336,224,0|60,3272,241,0|60,3232,240,0|52,3400,232,1|52,3440,232,1|60,3200,240,1|60,3160,240,1|80,3552,224,10|5,2769,271|40,2896,272,2992,880|43,3872,240|40,2928,888,4048,96|71,4256,96,Both,0,3,100,0,1,1|71,4096,96,Both,0,3,100,0,1,1|59,4267,217,1|59,4206,278,1|37,4608,184,15,60|35,5056,832,1,0|35,4992,832,1,0|35,4928,832,1,0|35,4872,832,1,0|43,5120,748|21,5488,-16|23,5776,112|38,5989,174,0,800,25|16,6058,158|17,6302,164|16,6524,170|16,6736,168|5,4688,192|5,6736,128|35,4808,832,1,0|35,4752,832,1,0|35,4688,832,1,0|6,6739,88|64,3009,106,1|64,2738,170,1|64,3030,384,1|64,4318,97,1|64,3981,250,1|64,4321,339,1|64,5542,74,1|65,6159,19,1|65,6368,51,1|65,6623,51,1~13~6~Boo%20Planet%20Galaxy%20%2D%20Star%201&comment=I'm back!
Play this game with the music: <!-- m --><a class="postlink" href="http://www.listenonrepeat.com/watch/?v=UVi86e_QCfY">http://www.listenonrepeat.com/watch/?v=UVi86e_QCfY</a><!-- m -->
To play with this music just copy+paste this link and mute Mario 63 music. 
