&voteddiff=0&votedscore=0&name=High Sky Galaxy m2&author=GMDragon11&score=4&difficulty=0&votes=1&votes1=1&votes2=0&code=50x100~0*6*3d*7*0*93*3d*7*0*93*3d*7*0*93*3d*7*0*93*3d*7*0*93*3d*7*0*87*3K*6*3d*7*0*93*3d*7*0*93*3d*7*0*93*3d*7*0*87*3K*6*3d*7*0*85*3d4K0*6*3d*7*0*85*4K3f0*6*3d*7*0*85*3d4M0*6*3d*7*0*85*4K3f0*6*3d*7*0*85*3d4M3d*13*0*85*4K3f3d*13*0*85*3d4M3d*13*0*85*4K3f0*98*3d4M0*98*4K3f0*98*3d4M0*98*4K3f0*98*3d4K0*1110*3d4M0*98*3P3d0*98*3d4M0*1388*~1,36,144,0,0,Right|2,64,2952|2,64,2984|2,64,3016|2,64,3046|37,58,3103,12,35|73,401,3106,Welcome%20to%20the%20High%20Sky%20Galaxy%21%3Cbr%3EStar%202%3A%20High%20Sky%20Daredevil%20Run|32,541,3042,1,0|120,541,3081,1,0|31,872,91,1,0|73,61,160,Here's the Injury Zone. In a Daredevil Comet%2C you going to get damaged so you'll end up with only one bar of health.|56,39,141,1|45,241,47,0,100,300,-1,92,0,0,0|45,112,35,0,100,300,-1,92,0,0,0|45,357,70,0,100,300,-1,92,0,0,0|40,404,119,60,2890|120,587,3019,1,55|120,629,2982,1,40|120,658,2937,1,25|120,677,2886,1,15|120,682,2831,1,355|119,675,2791,0,160|31,661,2925,1,0|32,918,156,1,0|31,978,75,1,0|32,1055,129,1,0|31,686,2864,1,0|33,672,2784,1,340|9,533,2776,0,0,0,0,0,0,Right,none,0.5,48,2,Left,9,0,1|9,432,2728,0,0,0,0,0,0,Right,none,0.5,48,2,Right,9,0,1|32,1372,129,1,0|33,1152,136,1,0|32,1251,119,1,0|31,1302,49,1,0|32,335,2723,1,0|120,336,2684,1,0|120,336,2629,1,0|32,334,2593,1,0|31,270,2665,1,0|32,1509,76,1,0|77,1119,815|8,1120,816,-3,1,60,0,2|31,625,1249,1,0|32,1194,356,1,0|9,480,2528,0,2,0,40,0,20,none,Up,0.5,32,2,Left,,,1|31,694,1339,1,0|32,878,1053,1,0|35,1535,493,1,0|77,1532,2|6,1105,82|32,686,1426,1,0|34,678,2429,1,0|119,639,2505,1,0|120,639,2467,1,0|119,716,2475,1,0|119,718,2451,1,0|110,479,3094,1,0|108,651,3074,1,0|111,672,2355,1,0|111,642,2356,1,0|31,1278,410,1,0|120,739,2391,1,0|120,738,2333,1,0|120,736,2278,1,0|120,734,2230,1,0|33,732,2200,1,0|9,816,2400,0,2,0,90,0,0,none,Up,0.5,32,2,Left,,,1|31,796,1115,1,0|109,797,1049,0,0|109,719,1140,1,0|35,1350,492,1,0|35,1413,492,1,0|8,736,2088,3,1,50,0,2|8,576,2000,-3,1,50,0,2|77,576,2000|33,718,1204,1,0|109,1407,545,1,0|31,1486,552,1,0|32,1409,610,1,0|114,467,1833,1,0|33,465,1865,1,0|32,465,1801,1,0|110,1232,672,1,0|114,554,1730,1,0|32,553,1764,1,0|31,551,1693,1,0|33,1215,734,1,0|11,624,1664|11,640,1664|11,688,1632|11,728,1600|11,744,1600|11,688,1560|32,627,1531,1,0|110,1200,672,0,0|32,1320,666,1,0|32,566,1481,1,0|32,570,1364,1,0|8,992,944,3,1,60,0,2|56,1194,334,1|56,543,3019,1|56,1387,471,1|57,500,2689,1|57,402,2535,1|57,555,2464,1|60,656,2408,1|60,730,2179,1|57,658,2047,1|56,465,1840,1|60,550,1672,1|60,630,1511,1|60,692,1320,1|56,797,1092,1|57,1047,872,1~1~4~High%20Sky%20Galaxy%20m2&comment=RANKS:
[color=#BFBFFF]S RANK: Complete the level and get all three 1-ups without falling off ANY platform.[/color]
[color=#FFBF00]A RANK: Complete the level and get all three 1-ups.[/color]
[color=#8080FF]B RANK: Complete the level and get at least one of the 1-ups.[/color]
[color=#804000]C RANK: Complete the level.[/color]

BTW, this is pretty hard. Just to let ya know. 
