&voteddiff=0&votedscore=0&name=Crazy Caves Galaxy m1&author=GMDragon11&score=0&difficulty=0&votes=0&votes1=0&votes2=0&code=150x125~0*47*3Q05r5f*3*6;6A6B6<5f*7*630*106*3Q0*3*6B5v6A0*4*5p5f*5*635z0*105*3Q0*3*5x5w*3*5{0*3*5r5f*4*635z0*105*3Q0*3*5x665f*3*620*4*5d5f*2*635z0*105*3Q0*3*3Q5y655f635v5z0*4*5d5f635z0*105*3Q0*3*3Q05x665f620*2*5x5w5{05d635z0*105*3Q0*3*3Q0*2*5e5f*2*6105x665f6106B5z0*105*3Q0*3*3Q0*3*5y65635z05q5f635z0*102*3Q*6*0*3*3Q0*5*5e645w5u5f*2*610*103*320*7*3Q0*6*5e635v*3*65610*103*320*6*3Q0*7*5r645w6C05r646C0*2*3Q0*99*3Q*7*0*9*6B5v6A0*2*6B6A0*352*3Q0*24*3Q0*349*3Q0*149*3Q0*224*3Q0*274*3Q0*99*3Q0*253*6D6C0*114*6D6C0*3*3Q0*2*5s5f*2*6F0*18*3Q0*92*5x6>5f*2*6F0*4*6:665f*2*610*111*5e5f*3*6E0*4*695t5f*2*6E0*111*5e5f636A0*3*3Q0*3*5p6?0*112*5y656E0*8*5y5z0*19*3Q0*92*5x666F0*4*6D5w6C0*3*3Q0*110*6D665f645w5{0*2*6G5f*2*6F0*3*3Q0*13*5x5w*2*5{0*92*5d5f*3*635z0*2*6G5f*2*610*4*3Q0*12*5q5f*2*645{0*91*6B655f635z0*2*5s5f*3*6E0*5*3Q0*7*6:5w*2*5u5f*4*645w5{0*90*5e5f620*3*5q5f6;6A0*2*5x5{0*3*3Q0*6*695v*2*5t5f*6*610*90*5r5f645w*2*5u6;6A0*3*5x66645w*2*5{03Q0*9*5p5f*4*635z0*91*6B5v*3*6A0*4*6D665f*4*6@0*11*5r5f*4*610*99*5x6>5f*7*6F0*11*6B5v5t5f610*99*5q5f*8*610*14*5p610*91*6:5w*6*5u5f*9*6E0*14*5r6E0*91*5q5f*11*635v*3*6A0*107*5s5f*12*610*111*5e5f*12*620*111*5e5f*12*610*887*3Q0*2*3Q0*114*3Q0*9*3Q0*115*3Q0*121*3Q0*3*3Q0*2*5x5w*3*5{0*2*3Q0*109*3Q0*5*3Q05e5f*2*635z0*2*3Q0*106*3Q0*2*3Q0*7*5e635v5z0*3*3Q0*106*3Q0*2*3Q0*7*5e645w5{0*3*3Q0*109*3Q0*5*3Q05e5f*2*645{0*2*3Q0*110*3Q0*3*3Q0*2*5y5v*3*5z0*2*3Q0*113*3Q0*123*3Q0*9*3Q0*121*3Q0*2*3Q0*459*3Q*15*0*110*3Q*15*0*10345*~1,576,608,0,0,Right|43,1440,776|73,885,849,Welcome%20to%20the%20Crazy%20Caves%20Galaxy%21%0DStar%201%3A%20Follow%20the%20Switch%27s%20Path|74,1027,1049,15|123,1151,853,1,30|105,961,864,1,0|104,990,863,1,0|105,1022,817,1,0|2,1088,832|2,1112,832|2,1136,832|2,928,832|2,952,816|2,976,800|77,1137,1392|110,1276,996,1,350|110,1165,955,1,10|113,1043,1224,1,185|114,1047,1182,1,0|52,1042,781,1|55,1201,1066,1|55,1216,1016,1|55,1219,965,1|55,1165,1111,1|2,1088,1192|2,1064,1208|2,1024,1208|2,1000,1192|56,1066,1037,1|109,870,1161,1,0|109,909,1160,0,0|11,968,1120|71,1002,1820,Left,0,9,2,0,7,0|118,1056,1027,1,15|117,1085,1024,1,0|117,1047,938,1,180|116,1086,975,1,55|56,862,1123,1|118,296,1024,1,0|118,296,1080,0,180|116,295,969,1,0|116,296,1136,0,180|118,263,993,1,50|140,247,1017,1,150|55,296,1208,1|55,288,1256,1|55,256,1296,1|55,216,1328,1|55,176,1368,1|2,520,1040|118,252,1765,1,15|110,287,1527,1,0|2,824,1032|2,800,1016|2,776,1016|2,728,1032|2,752,1016|71,309,1027,Right,0,9,2,0,7,0|37,575,786,17,15|2,576,640|2,576,664|2,576,688|2,576,712|2,576,736|2,712,1032|2,696,1016|2,672,1016|2,648,1016|2,629,1032|2,504,1024|2,480,1024|2,456,1024|2,440,1040|2,424,1040|2,408,1024|2,384,1024|2,360,1024|2,336,1040|74,209,1663,17|111,111,1584,1,20|111,265,1556,1,290|2,224,1640|4,224,1608|2,208,1640|2,160,1640|2,192,1640|2,176,1640|51,112,1816,1|51,144,1816,1|117,22,1804,1,0|116,3,1733,1,0|116,32,1747,1,75|117,218,1763,1,345|117,269,1761,1,70|40,1039,1712,1792,1680|35,1017,1838,1,0|114,31,1593,1,90|114,32,1624,1,270|55,368,1816,1|55,392,1816,1|55,584,1816,1|55,608,1816,1|55,808,1816,1|55,784,1816,1|108,279,1656,1,0|110,288,1660,1,0|77,1272,1848|2,1256,1848|2,1240,1848|2,1224,1848|111,1072,1752,1,0|111,1104,1752,1,0|111,1072,1728,1,0|111,1104,1728,1,0|111,1072,1704,1,0|111,1104,1704,1,0|111,1072,1680,1,0|111,1104,1680,1,0|111,1088,1656,1,0|2,1000,1792|2,1000,1768|2,1000,1744|2,1000,1720|74,1784,1752,15|74,1800,1752,15|35,1792,1768,1,0|42,1792,1657,0,180|2,1864,1776|2,1840,1776|2,1816,1776|2,1792,1776|2,1768,1776|2,1744,1776|2,1720,1776|109,1760,1600,1,0|109,1824,1600,0,0|4,1792,1392|53,1739,1578,1|53,1850,1578,1|71,1808,1576,Left,90,9,5,0,7,0|55,1648,1704,1|55,1936,1696,1|55,1776,1424,1|55,1808,1424,1|55,1744,1272,1|71,1872,1584,Left,45,9,5,0,7,0|71,1712,1584,Right,315,9,5,0,7,0|71,1776,1576,Right,270,9,5,0,7,0|55,1840,1272,1|37,1792,1168,20,0|2,1840,808|2,1824,808|35,1792,832,1,0|35,1856,832,1,0|35,2048,832,1,0|35,2112,832,1,0|56,1873,812,1|2,1776,808|2,1792,808|2,1808,808|56,2064,812,1|74,2111,815,9999|35,2112,448,1,0|6,2112,416|35,2240,832,1,0|35,2304,832,1,0|35,2368,832,1,0|77,2376,808~NaN~13~Crazy%20Caves%20Galaxy%20m1&comment=RANKS:
[color=#BFBFBF]S Rank: Complete the level and get all three 1-ups with full health at the end.[/color]
[color=#FFBF00]A Rank: Complete the level and get all three 1-ups.[/color]
[color=#8080FF]B Rank: Complete the level and get at least one of the 1-ups.[/color]
[color=#804000]C Rank: Complete the level.[/color]
Enjoy!  <!-- s:D --><img src="{SMILIES_PATH}/icon_e_biggrin.gif" alt=":D" title="Very Happy" /><!-- s:D -->    
or else..... 
