&voteddiff=0&votedscore=0&name=Marios Journey Koopa Boss&author=Thefiredragoon&score=2&difficulty=0&votes=1&votes1=1&votes2=0&code=69x17~0*15*5d5f0*15*5d5f0*15*5d5f0*15*5d5f0*15*5d5f0*15*5d5f0*4*3d*2*0*9*5d5f0*4*3d0*4*3d*6*5d5f0*4*3d0*4*3d03d*4*5d5f0*4*3d0*4*3d*6*5d5f0*4*3d*6*0*5*5d5f0*15*5d5f0*15*5d5f0*15*5d5f0*15*5d5f0*15*5d5f0*202*5d5f0*15*5d5f0*15*5d5f0*15*5d5f0*15*5d5f0*15*5d5f0*15*5d5f0*3*3d*2*0*10*5d5f0*3*3d0*5*3d*6*5d5f0*3*3d0*5*3d03d*4*5d5f0*3*3d0*5*3d*6*5d5f0*3*3d*7*0*5*5d5f0*15*5d5f0*355*5d5f0*15*5d5f0*15*5d5f0*15*5d5f0*15*5d5f0*10*3d*5*5d5f0*11*3d*4*5d5f0*10*3d*5*5d5f0*15*5d5f~1,15,389,0,0,Right|56,242,304,1|9,159,384,2,0,80,0,0,0,Left,none,0.5,80,6,Left,0,72,1|9,157,288,2,0,80,0,0,0,Left,none,0.5,80,6,Left,0,72,1|82,16,429|73,55,444,Wait%20for%20the%20drills%20to%20go%20back%20to%20the%20machine%2E%20Then%20use%20fludd%20to%20go%20up%20and%20hit%20him%21|40,243,217,971,353|3,243,200|73,1001,444,His%20drills%20are%20faster%20now%21%20Just%201%20more%20hit%20and%20his%20drills%20are%20down%21|9,1048,335,6,0,40,0,0,0,Left,none,0.5,40,6,Left,3,72,1|9,1053,410,6,0,40,0,0,0,Left,none,0.5,40,6,Left,3,72,1|56,1139,305,1|40,1132,215,2000,409|3,1134,191|56,2101,306,1|3,2101,270|6,1905,390|73,1956,445,Finish%20Him%21|43,1504,343|43,640,332~12~5~Marios%20Journey%20Koopa%20Boss&comment=The boss of Koopa Mines... This is my first try at making a Boss (Big Bully not counting)
... Unreleased Content! Get your Unreleased Content!
Sorry if the level isn't that good, As i said above its my first time trying to make a boss :/ 
