&voteddiff=0&votedscore=0&name=Space Land&author=joemars521230&score=3&difficulty=0&votes=2&votes1=2&votes2=0&code=50x69~0*2*8<5g610*4*8<610*43*5e5f*14*0*2*8<5g610*4*8<610*39*4u*3*4w5e5f*5*5g*2*5f*7*0*2*5v*2*670*4*8<610*39*4u0*2*4w5e5f*3*6?5v*8*5d5f0*9*8<610*39*4u*3*4w5e5f*3*610*8*5e5f0*2*5w*2*680*4*8<610*43*5e5f*3*610*8*5e5f0*2*8<5f610*4*8<610*43*5e5f*3*610*8*5e5f0*2*8<5f610*4*8<610*43*5e5f*3*610*8*5e5f0*2*8<5f610*4*8<610*43*5e5f*3*610*8*5e5f0*2*5v*2*670*4*8<610*43*5e5f*3*610*8*5e5f0*9*5v5z0*43*5y5v*3*5z0*8*5e5f0*67*5e5f0*67*5e5f0*67*5e5f0*67*5e5f0*7*5e5g610*57*5e5f0*7*5e5g610*57*5e5f0*7*5e5g610*57*5e5f0*7*5e5g610*57*5e5f0*7*5e5g610*57*5e5f0*7*5e5g610*57*5e5f0*7*5e5g610*57*5e5f0*7*5e5g610*57*5e5f0*7*5e5g610*57*5e5f0*7*5e5g610*57*5e5f0*7*5e5g610*57*5e5f0*7*5e5g610*57*5e5f0*7*5e5g610*57*5e5f0*7*5e5g610*57*5e5f0*7*5e5g610*57*5e5f0*7*5e5g610*57*5e5f0*7*5e5g610*57*5e5f0*7*5e5g610*57*5e5f0*7*5e5g610*47*6:5w*2*680*6*5e5f0*7*5e5g610*47*5e5f*2*610*6*5e5f0*7*5e5g610*47*5e5f*2*610*6*5e5f0*7*5e5g610*47*5e5f*2*610*6*5e5f0*7*5e5g610*47*5e5f*2*610*6*5e5f0*7*5e5g610*47*5e5f*2*610*6*5e5f0*7*5e5g610*47*5e5f*2*610*6*5e5f0*7*5e5g610*47*5e5f*2*610*6*5e5f0*7*5e5g610*47*695v*2*670*6*5e5f0*7*5e5g610*57*5e5f0*7*5e5g610*57*5e5f0*7*5e5g610*57*5e5f4u*3*0*4*5e5g610*34*5w*3*0*20*5e5f0*2*4u0*4*5e5g610*28*3>*4*0*2*5d5g*2*0*18*5e5f*3*0*2*4u0*4*5e5g610*17*3>*12*4u*5*5d5g*2*0*20*5e5f0*2*4u0*4*5e5g610*29*4u0*4*5d5g*2*0*16*5e5f*5*0*2*4u0*4*5e5g610*29*4u0*4*5d5g*2*0*24*4u0*4*5e5g610*29*4u0*4*5d5g*2*0*16*5e5f*5*~1,120,1887,0,0,Right|6,1517,1306|5,1520,2044|45,1523,2125,0,100,100,64,92,0,0,0|37,1394,1968,15,-25|4,1054,1765|4,1216,1767|2,1138,1767|5,1133,1581|26,1070,1584|26,1132,1535|26,1200,1584|26,1134,1634|82,1179,1784|78,1035,1742,15|77,1089,1785|73,1412,1377,Sorry%20you%20need%20to%20search%20a%20Invisibilitly%20Cap%2E%2E%2E|71,1494,1482,Both,180,3,100,0,1,0|5,44,1614|79,175,1651,5|11,43,1298|11,29,1298|37,299,1131,15,-20|35,-2,883,1,0|5,0,812|4,-1,764|27,1053,1506|71,83,1846,Both,180,9,5,0,1,1|71,238,1845,Both,180,9,5,0,1,1|71,72,2118,Right,0,9,5,0,1,1|79,1520,-12,30|30,1521,32,1,0|8,696,1543,7,2,100,90,1|73,1247,1809,If%20you%20have%204%20silver%20star%20follow%20this%20arrow|37,38,580,90,70|35,0,257,1,0|35,64,256,1,0|5,685,1453|141,866,1514,1,290|140,1141,1716,1,0|30,1459,32,1,0|39,1488,30,1488,30,4|71,1437,76,Both,180,9,5,0,1,1|77,-8,241|39,-9,21,1488,30,4|55,595,2037,1|55,924,2033,1|52,786,2107,1|52,625,2104,1|52,973,2103,1|57,1108,2025,1|56,1179,2111,1|59,1276,2113,1|59,738,2032,1|59,466,2098,1|59,197,2098,1|59,141,2096,1|59,278,2101,1|59,249,2065,1|59,347,2090,1|45,237,259,0,100,100,190,0,0,0,0|45,205,258,0,100,100,190,0,0,0,0|45,169,256,0,100,100,190,0,0,0,0|45,129,258,0,100,100,190,0,0,0,0|45,83,258,0,100,100,190,0,0,0,0|45,37,258,0,100,100,190,0,0,0,0|45,-7,258,0,100,100,190,0,0,0,0|80,1504,1182,60|73,1544,1216,You%20have%2060%20seconds%20to%20use%20the%20metal%20cap|71,72,2095,Right,0,9,5,0,1,1|71,73,2069,Right,0,9,5,0,1,1|71,1399,2114,Both,0,9,5,0,1,0|71,1399,2092,Both,0,9,5,0,8,1|71,1399,2068,Both,0,9,5,0,1,0|60,1103,2114,1|60,877,2108,1|60,718,2108,1|61,1348,2102,1|11,114,394|11,207,395|11,319,395|26,1302,137|26,1240,178|26,1337,65|26,1248,71|26,1190,123|26,1291,7|26,1184,12|20,1007,16|22,1007,16|23,1008,16|18,1024,162,2,0|18,1007,17,2,0|19,820,101,2,0|59,1135,191,1|59,1246,124,1|59,1296,192,1|59,1086,-19,1|60,1081,191,1|59,1192,187,1|60,926,188,1|61,760,177,1|61,540,175,1|73,1447,27,Hurry%2E%2E%2E%20You%20only%20have%2030%20seconds%20to%20use%20the%20Invisibility%20Cap|84,1549,185|37,488,467,50,-25|4,1534,13|71,1524,76,Both,180,9,5,0,1,1|71,1482,76,Both,180,9,5,0,1,1|11,-9,36|40,179,28,89,2005|73,19,250,Left%20%2D%2D%2D%2D%2D%20%20Warp%20Pipe%0DRight%2D%2D%2D%2D%2DDoor%20|42,1458,167,1,0|27,1053,1647|27,1214,1657|27,1216,1513|39,429,206,88,2126,4|57,82,46,1|57,83,166,1|61,54,224,1|45,207,338,180,100,100,190,0,1,0,0|45,165,335,180,100,100,190,0,0,0,0|45,116,335,180,100,100,190,0,0,0,0|45,70,335,180,100,100,190,0,0,0,0|73,232,1706,This%20is%20a%20sign%2E%2E%2E%20The%20Bullet%20Bills%20can%20help%20you~14~13~Space%20Land&comment=Hi! This is my first level designer.
The level is too easy.
If you FLUDD doesn't work the Bullet Bills can help you 
