&voteddiff=0&votedscore=0&name=Warp In Time 4 - Far Far Future&author=PoisonedDarkness&score=4&difficulty=0&votes=2&votes1=2&votes2=0&code=50x30~8<8=*7*8?0*17*5d5f8<8=8<8>*5*8<8=8?0*17*6B5v8<8=8<8>4r4m4h8>8<8=8?0*19*8<8=8<8>0*3*8>8<8=8?0*7*5x5w5{0*9*8<8=8<8>0*3*8>8<8=8?0*7*5e5g610*9*8<8=8<8>0*3*8>8<8=8?0*7*5e5g610*9*8<8=8<8>0*3*8>8<8=8?0*7*5e5g610*9*8<8=8<8>0*3*8>8<8=8?0*7*5e5g610*9*8<8=8<8>4q4n4h8>8<8=8?0*7*5e5g610*9*8<8=8<8>*5*8<8=8?0*7*5e5g610*9*8<8=8<8=*7*8?0*7*5e5g610*9*8<8=8?*9*0*7*5e5g610*9*8<8=0*16*5e5g610*9*8<8=0*16*5e5g610*9*8<8=0*16*5e5g610*9*8<8=0*16*5e5g610*9*8<8=0*16*5e5g610*9*8<8=0*16*5e5g610*9*8<8=0*16*5e5g610*9*8<8=0*16*5e5g610*9*8<8=0*16*5e5g610*9*8<8=0*16*5e5g610*9*8<8=0*16*5e5g610*9*8<8=0*16*5e5g610*9*8<8=0*16*5e5g610*9*8<8=0*16*5e5g610*9*8<8=0*16*5y5v5z0*9*8<8=0*28*8<8=0*19*5x5w5{0*6*8<8=0*19*5e5g610*6*8<8=0*19*5e5g610*6*8<8=0*19*5e5g610*6*8<8=0*19*5e5g610*6*8<8=0*19*5e5g610*6*8<8=0*19*5e5g610*6*8<8=0*19*5e5g610*6*8<8=0*19*5e5g610*6*8<8=0*19*5e5g610*6*8<8=0*19*5e5g610*6*8<8=0*19*5e5g610*6*8<8=0*19*5e5g610*6*8<8=0*19*5e5g610*6*8<8=0*19*5e5g610*6*8<8=0*19*5e5g610*6*8<8=0*19*5e5g610*6*8<8=0*19*5e5g610*6*8<8=0*19*5e5g610*6*8<8=0*19*5y5v5z0*6*8<8=0*28*8<8=0*28*8<8=~1,-17,773,0,0,Right|7,367,773,0,9,0,60,0,0,none,Down,0.5,1,1,25|8,190,741,3,9,90,0,2|9,467,775,0,2,0,40,0,0,Left,Down,0.5,80,6,Left,9,0,1|14,687,801|118,687,837,1,0|45,190,834,0,100,100,-1,0,0,0,0|41,14,820,1,0|41,13,848,1,5|41,11,878,1,0|42,14,799,1,0|5,800,831|5,142,786|5,837,588|5,1409,799|6,1439,508|20,909,647|28,1083,777,1,0|28,1108,787,1,35|41,1177,856,1,0|42,1205,801,1,40|45,1147,815,315,100,100,50,100,0,0,0|41,1277,855,1,0|41,1277,824,1,0|41,1277,793,1,0|42,1277,766,1,0|45,1277,723,0,100,100,50,100,0,0,0|41,1409,853,1,0|40,1409,811,129,447|45,1408,779,0,100,100,50,100,0,0,0|42,130,454,1,0|41,785,566,1,0|41,787,588,1,350|41,794,617,1,340|41,807,638,1,315|41,828,651,1,280|41,856,652,1,260|41,882,644,1,250|40,784,492,127,123|40,128,123,782,492|73,210,129,I%20forgot%20to%20mention%20who%20my%20inspiration%20was%2E%0D%0DRockinJake63%20was%20the%20one%20who%20inspired%20me%20to%20make%20a%20time%20travel%20game%2E%20I%20now%20have%20a%20series%20idea%21%20Thank%20you%2C%20RockinJake63%21|73,17,800,WHOA%21%20I%20don%27t%20know%20of%20any%20time%20zone%20that%20resembles%20this%21%20Unless%2E%2E%2E%20this%20is%20the%20FUTURE%3F|73,682,789,Meteors%2C%20falling%20platforms%2C%20lava%2C%20fire%2C%20and%20now%20tilting%20logs%20and%20clock%20swings%20complete%20with%20a%20guardian%20Bully%3F%20Man%2E%2E%2E%20this%20course%20is%20brutal%21|73,1080,774,Wow%21%20That%20was%20a%20vicious%20swing%21%20Oh%2E%2E%2E%20but%20now%20there%20are%20fire%20dispensers%2E%20Who%20did%20this%3F|73,360,493,Stone%20clouds%2C%20or%20hanging%20meteors%3F%20You%20decide%2E|73,1100,595,I%20hear%20something%2E%2E%2E%2E%2E%0DWHOA%21%0DGiant%20meteor%20strike%21|9,1240,266,0,9,0,40,0,0,Right,Down,0.5,200,6,Right,9,0,1|73,1413,589,I%27d%20better%20get%20outta%20here%20before%20things%20get%20uglier%2E%2E%2E|61,684,624,1|80,126,63,9999|81,125,63,9999|77,127,64|21,906,657|113,914,817,1,0|114,914,860,1,0~9~13~Warp%20In%20Time%204%20%2D%20Far%20Far%20Future&comment=Things get dangerously intense as Mario enters the Future. Here, flames and meteors, bullies and lava await you ready to make you meet your demise... unless you escape.

Secret warp pipe to dedication, I forgot to put it in last level. 
