&voteddiff=0&votedscore=0&name=Perfect World!&author=Danny&score=2.25&difficulty=0&votes=4&votes1=4&votes2=0&code=100x45~0*8*7T0*11*9@9G9T*10*9N0*10*2K2M0*8*7T0*11*9@9G9T*10*9N0*10*2K2M0*8*7T0*11*9@9G9T*10*9N0*10*2K2M0*8*7T0*11*9@9G9T*10*9N0*10*2K2M0*8*7T0*11*9@9G9T*10*9N0*10*2K2M0*8*7T0*11*9@9G9T*10*9N0*8*2W2Y2[2M0*8*7T0*11*9@9G9T*10*9N0*8*2X2\2M*2*0*8*7T0*11*9@9G9T*10*9N0*9*2b2M*2*0*8*7T0*11*9@9G9T*10*9N0*9*2L2M*2*0*8*7T0*11*9D9V9W9U9W9U9W9U9W9U9W9U9N0*9*2c2M*2*0*8*7T0*33*2K2M*2*0*8*7T0*44*7T0*44*7T0*44*7T0*44*7T0*44*7T0*44*7T0*18*9N9W9U9W9U9W9U920*10*7T*9*0*18*9N9T*6*920*37*9N9T*6*920*37*9N9T*6*920*37*9N9T*6*920*37*9N9T*6*920*2*9N9V9U9W9U9W9U9N0*27*9N9T*6*920*2*9N9T*6*9N0*27*9N9T*6*920*2*9N9T*6*9N0*27*9N9T*6*920*2*9N9T*6*9N0*27*9N9T*6*920*2*9N9T*6*9N0*27*9N9T*6*920*2*9N9T*6*9N0*27*9N9T*6*920*2*9N9T*6*9N0*27*9N9T*6*920*2*9N9T*6*9N0*27*9N9T*6*920*2*9N9T*6*9N0*27*9N9T*6*920*2*9N9T*6*9N9V9U9W9U9W9U:r0*20*9N9W9U9W9U9W9U920*2*9N9T*6*9N9T*6*:r0*30*9N9T*6*9N9T*6*:r0*30*9N9T*6*9N9T*6*:r0*30*9N9T*6*9N9T*6*:r0*30*9N9T*6*9N9T*6*:r0*30*9N9T*6*9N9T*6*:r0*30*9N9T*6*9N9T*6*:r0*8*9N9V9U9W9U9W9U9W9U920*12*9N9T*6*9N9T*6*:r0*8*9N9S*8*920*12*9N9T*6*9N9T*6*:r0*8*9N9S*8*920*12*9N9T*6*9N9T*6*:r0*8*9N9S*8*920*12*9N9T*6*9N9T*6*:r0*8*9N9S*8*920*12*9N9T*6*9N9T*6*:r0*8*9N9S*8*920*12*9N9T*6*9N9T*6*:r0*8*9N9S*8*920*12*9N9T*6*9N9T*6*:r0*8*9N9S*7*9R920*12*9N9V9U9W9U9W9U9N9T*6*:r0*8*9N9S*7*92*2*0*20*9T*6*:r0*8*9N9S*7*92*2*0*20*9T*6*:r0*8*9N9S*7*92*2*0*20*9T*6*:r0*8*9N9S*7*92*2*0*20*9V9U9W9U9W9U:r0*8*9N9S*7*92*2*0*35*9N9S*7*92*2*0*35*9N9S*7*92*2*0*35*9N9S*7*92*2*0*35*9N9S*7*92*2*0*35*9N9S*7*92*2*0*35*9N9V9W9U9W9U9W9U92*2*0*56*9^9V9W9U9W9U9W9U9N0*36*9^9\9T*6*9N0*36*9^9\9T*6*9N0*36*9^9\9T*6*9N0*36*9^9\9T*6*9N9V9W9U9W9U7U0*14*9^9V9U9W9U9W9U9W9U:r0*6*9^9\9T*6*9N9X9Z9X9Z9X7U0*5*9N9V9U9W9U920*3*9^9T*8*:r0*6*9^9\9T*6*9N9Y9[9Y9[9Y7U0*5*9N:?9M9L9M920*3*9^9T*8*:r0*6*9^9\9T*6*9N9X9Z9X9Z9X7U0*5*9N9L9M9L9M920*3*9^9T*8*:r0*6*9^9\9T*6*9N9Y9[9Y9[9Y7U0*5*9N4u*2*9L9M920*3*9^9T*8*:r0*6*9^9\9T*6*9N9X9Z9X9Z9X7U0*5*9N9L9M9L9M920*3*9^9T*8*:r0*6*9^9\9T*6*9N9Y9[9Y9[9Y7U0*5*9N3=3<9L9M920*3*9^9T*8*:r0*6*9^9\9T*6*9N9X9Z9X9Z9X7U0*5*9N9L9M9L9M920*3*9^9T*8*:r0*6*9^9\9T*6*9N9Y9v*3*9x7U0*5*9N9L9M9L8<920*3*9^9T*8*:r0*6*9^9\9T*6*9N9X9v*3*9x7U0*5*9N:?9M9L8<920*3*9^9T*8*:r0*6*9^9\9T*6*9N9V9W9U9W9U7U0*5*9N9V9U9W9U920*3*9^9T*8*:r0*6*9^9\9T*6*9N0*20*9^9T*8*:r0*6*9^9\9T*6*9N0*20*9^9T*8*:r0*6*9^9\9T*6*9N0*20*9^9T*8*:r0*6*9^9\9T*6*9N0*20*9^9T*8*:r0*6*9^9\9T*6*9N0*20*9^9T*8*:r0*6*9^9\9T*6*9N7T*11*0*9*9^9T*8*:r0*6*9^9\9T*6*9N0*10*7T0*9*9^9T*8*:r0*6*9^9\9T*6*9N0*10*7T0*9*9^9T*8*:r0*6*9^9V9W9U9W9U9W9U9N0*10*7T0*9*9^9T*8*:r0*25*7T0*9*9^9T*8*:r0*25*7T0*9*9^9T*8*:r0*25*7T0*9*9^9T*8*:r0*25*7T0*9*9^9T*8*:r0*25*7T0*9*9^9T*8*:r0*25*7T0*9*9^9T*8*:r0*25*7T0*9*9^9T*8*:r0*25*7T0*9*9^9T*8*:r0*6*7T*9*0*10*7T0*9*9^9T*8*:r0*6*7T0*7*7S0*10*7T0*9*9^9T*8*:r0*6*7T0*7*7S0*10*7T0*9*9^9V9U9W9U9W9U9W9U:r0*6*7T0*7*7S0*10*7T0*25*7T0*7*7S0*10*7T0*25*7T0*7*7S0*10*7T0*25*7T0*7*7S0*10*7T0*25*7T0*7*7S0*10*7T0*25*7T0*7*7S7T*11*0*25*7T0*7*7S~1,27,1288,0,0,Right|73,766,1378,Gym
|73,558,1056,Door%20Room%0D1%3AGym%20%202%3ALounge%0D3%3AObservatory%20%20%0D4%3ASwimming%20pool%0D5%3AMonster%20Room%20%20%0D6%3AConcert%20hall%0D7%3AStorage%20%208%3AReference%20Room%0D9%3ACorridor%0D%0D%0D%0D|73,11,991,Concert hall
|40,297,1275,598,980|35,815,1372,1,0|35,885,1374,1,0|9,1204,1260,0,0,0,0,0,0,none,none,0.0,50,13,Left,0,0,1|7,1031,1370,1,0,5,0,0,0,Right,none,0.5,1,0,25|30,965,1347,1,90|30,1052,1347,1,90|28,1064,1311,1,155|29,989,1355,1,90|30,989,1336,1,90|28,977,1315,1,330|29,1077,1356,1,90|30,1077,1333,1,90|7,1125,1372,1,0,5,0,0,0,Right,none,0.5,1,0,25|30,1144,1348,1,90|29,1163,1354,1,90|30,1163,1337,1,90|28,1153,1314,1,335|29,1117,1341,1,90|29,1126,1342,1,90|29,1123,1304,1,90|29,1142,1295,1,20|29,1142,1303,1,20|29,1217,1309,1,25|35,1383,1372,1,0|30,1387,1336,1,90|29,1365,1300,1,0|29,1410,1301,1,0|29,1342,1321,1,90|29,1430,1323,1,90|28,1355,1344,1,0|28,1416,1344,1,0|29,1387,1274,1,90|28,1387,1249,1,0|7,1203,1372,1,0,5,0,0,0,Right,none,0.5,2,0,25|30,1221,1348,1,90|30,1238,1346,1,90|31,1229,1316,1,0|7,1270,1371,1,0,5,0,0,0,Right,none,0.5,2,0,25|30,1287,1348,1,90|30,1301,1347,1,90|31,1295,1317,1,0|29,1196,1345,1,90|29,1205,1346,1,90|29,1201,1306,1,90|29,1217,1302,1,25|9,1123,1261,0,0,0,0,0,0,none,none,0.0,50,13,Left,0,0,1|9,1127,1233,0,0,0,0,0,0,none,none,0.0,0,1,Left,0,0,1|7,954,1371,1,0,5,0,0,0,Right,none,0.5,1,0,25|73,1921,1376,Lounge
|35,2004,1372,1,0|35,2115,1372,1,0|29,2057,1352,1,90|30,2055,1330,1,0|29,2022,1363,1,0|29,2025,1358,1,5|29,2021,1323,1,0|29,2022,1318,1,0|30,2002,1336,1,90|9,2003,1285,0,0,0,0,0,0,none,none,0.0,50,13,Left,0,0,1|29,2095,1365,1,0|29,2096,1361,1,355|29,2094,1324,1,0|29,2093,1320,1,0|30,2116,1338,1,90|9,2117,1286,0,0,0,0,0,0,none,none,0.0,50,13,Left,0,0,1|35,2226,1372,1,0|35,2329,1373,1,0|29,2281,1353,1,90|30,2282,1331,1,0|29,2249,1363,1,0|29,2251,1358,1,0|29,2253,1325,1,0|29,2252,1316,1,340|30,2227,1336,1,90|9,2227,1285,0,0,0,0,0,0,none,none,0.0,50,13,Left,0,0,1|31,2496,1366,1,0|31,2417,1365,1,0|35,2433,1373,1,0|35,2514,1373,1,0|35,2911,1208,1,0|35,2966,1203,1,350|38,2872,1203,0,315,215|73,2896,1203,Swimming pool
|7,1505,707,1,0,10,0,0,0,Right,none,0.5,3,0,25|7,1568,707,1,0,10,0,0,0,Right,none,0.5,3,0,25|8,1620,713,999,1,5,5,1|8,1652,713,999,1,5,5,1|73,2081,895,Cloister
|73,1316,738,Corridor
|73,2094,480,Storage
|82,2159,464|83,2174,463|84,2192,465|133,2221,462,1,0|133,2126,463,1,0|132,2145,420,1,0|39,2036,896,1776,691,1|78,2063,367,5|79,2085,456,5|80,2235,373,3|81,2159,370,5|132,2202,418,1,0|73,2072,127,Reference%20Room%0D|73,2206,127,The%20red%20coin%20in%20swimming%20pool%20is%20on%20the%20right%20of%20bottom%2E%0D%0D|73,1165,159,Monster Room
|130,1222,146,1,0|4,1048,130|4,1049,94|133,1557,136,1,0|38,1571,100,0,40,80|133,1556,93,1,0|62,1586,106,1|62,1592,136,1|60,1456,149,1|59,1496,148,1|59,1287,148,1|53,1342,154,1|52,1384,141,1|51,1262,151,1|51,1422,153,1|51,1517,150,1|56,1316,146,1|54,1358,152,1|55,1503,36,1|57,1326,25,1|67,1412,40,1|66,1438,150,1|51,1475,151,1|59,1530,148,1|53,1332,154,1|73,35,223,Observatory
|35,193,220,1,0|28,211,210,1,0|28,212,201,1,0|29,198,188,1,90|28,216,175,1,0|28,217,182,1,0|9,201,149,0,0,0,0,0,0,none,none,0.0,40,13,Left,0,0,1|29,249,203,1,90|30,254,192,1,90|29,254,159,1,0|28,236,154,1,0|29,292,153,1,345|29,275,131,1,285|30,298,126,1,50|35,361,221,1,0|30,402,194,1,90|29,402,184,1,0|30,444,163,1,310|30,437,156,1,290|30,445,101,1,270|30,489,135,1,345|30,470,82,1,35|30,499,106,1,45|5,631,7|5,676,104|5,773,16|2,332,6|2,360,20|2,390,27|2,423,27|2,422,-8|2,458,-12|2,459,26|2,463,341|2,615,187|2,661,192|2,644,239|2,682,256|2,677,306|2,783,131|42,3111,145,1,245|32,3082,283,1,0|10,2870,203|10,2851,195|10,2900,226|10,2831,183|10,2815,171|10,2806,165|10,2798,160|10,2792,153|10,2783,147|10,2776,139|10,2769,130|10,2890,219|10,2931,246|10,2971,276|10,2962,268|10,2953,260|10,2943,251|10,2923,240|10,2912,232|10,2880,211|10,2860,198|10,2840,186|10,2822,175|30,2880,258,1,90|29,2915,267,1,90|30,2785,254,1,90|30,2785,196,1,90|30,2831,254,1,90|29,2830,217,1,90|6,2692,30|7,2693,219,0,2,0,50,0,0,none,Down,0.5,1,1,5|7,2695,163,0,2,0,50,0,0,none,Down,0.5,1,1,5|30,241,913,1,90|9,235,859,0,0,0,0,0,0,none,none,0.0,50,13,Left,0,0,1|29,221,936,1,350|29,220,941,1,0|32,8,879,1,0|31,241,947,1,0|29,217,893,1,20|10,216,876|10,203,872|10,194,868|7,222,893,1,0,5,0,0,0,Left,none,0.5,1,0,25|28,209,877,1,35|31,153,949,1,0|31,110,947,1,0|28,99,922,1,90|28,118,923,1,90|10,96,901|10,124,901|10,110,902|29,137,938,1,0|29,134,932,1,0|7,125,884,0,1,0,10,0,0,none,Down,0.5,2,0,25|7,125,890,0,1,0,10,0,0,none,Down,0.5,2,0,25|30,156,910,1,90|9,158,858,0,0,0,0,0,0,none,none,0.0,50,13,Left,0,0,1|31,239,817,1,0|29,227,809,1,0|29,227,802,1,355|30,246,780,1,90|28,209,759,1,90|9,234,727,0,0,0,0,0,0,none,none,0.0,50,13,Left,0,0,1|10,210,770|10,206,773|10,215,773|10,211,776|7,233,776,1,0,5,0,0,0,Left,none,0.5,1,0,25|29,227,755,1,35|31,153,815,1,0|29,138,808,1,355|29,140,812,1,355|30,159,784,1,90|9,158,734,0,0,0,0,0,0,none,none,0.0,50,13,Left,0,0,1|30,132,748,1,0|29,139,761,1,25|7,141,758,1,1,5,5,0,0,Left,Up,0.5,1,0,25|29,0,848,1,90|29,12,849,1,90|30,6,804,1,90|30,36,791,1,340|7,17,794,1,1,5,5,0,0,Right,Up,0.5,1,0,25|7,17,795,1,1,6,6,0,0,Right,Up,0.5,1,0,25|7,17,795,1,1,7,7,0,0,Right,Up,0.5,1,0,25|9,8,751,0,0,0,0,0,0,none,none,0.0,50,13,Left,0,0,1|30,2587,267,1,50|29,2565,265,1,95|30,2568,222,1,90|29,2548,225,1,10|9,2572,171,0,0,0,0,0,0,none,none,0.0,50,13,Left,0,0,1|30,2601,212,1,340|29,2548,212,1,335|3,2273,1305|3,3162,1377|3,2291,433|3,1580,146|3,466,116|3,63,775|3,1388,1238|3,2294,-18|73,3034,288,Congratulations!
Good jobs.
Now%2C the Shine Sprite is yours!


|73,70,1341,Welcome to Perfect World!
Come into that pipe.

|39,727,1376,649,1043,1|39,743,1057,2918,1194,1|39,679,1057,1883,1356,1|39,1882,1378,680,1041,1|76,113,200|35,99,221,1,0|76,87,200|39,647,1058,726,1361,1|39,-9,224,710,1046,1|39,710,1057,-9,210,1|39,2918,1206,743,1042,1|39,1096,159,776,1048,1|39,776,1056,1095,144,1|39,808,1057,44,980,1|39,43,994,807,1042,1|39,2063,479,839,1045,1|39,838,1057,2065,464,1|39,870,1057,2038,112,1|39,2038,129,871,1041,1|39,1270,735,905,1043,1|39,902,1056,1270,718,1|39,1775,705,2036,878,1|40,2919,855,3101,152|39,2665,287,29,1282,1|73,2637,280,EXIT!
(Each room has a red coin
If you don't get eight%2C
come into this door)


|28,2638,286,1,0~4~13~Perfect%20World%21&comment=In this world.
There're many rooms.
Each room has one red coin.
And you should get eight red coins.
I am pleased to share this level.
And I hope you'll like it! <!-- s:D --><img src="{SMILIES_PATH}/icon_e_biggrin.png" alt=":D" title="Very Happy" /><!-- s:D -->  
