&voteddiff=0&votedscore=0&name=Space Rock Galaxy&author=epicyoshi&score=4.67&difficulty=0&votes=3&votes1=3&votes2=0&code=120x120~0*81*3m3d*10*0*109*3m3d*10*0*14*5x5{0*93*3m3d*10*0*14*5i645{0*92*3m3v*2*3d3v*2*3d*5*0*8*5x5{0*4*5h635z0*92*3m3v*5*3d*5*0*8*5y5z0*4*5y5z0*93*3m3v*5*3d*5*0*109*3m3v*5*3d*5*0*5*5x5{0*3*5x5{0*97*3m3v*2*3d3v*2*3d*5*0*5*5y5z0*3*5y5z0*7*5x5w*2*5{0*86*3m3v*2*3d3v*2*3d*5*0*19*5q5f*2*610*86*3m3v*2*3d3v*2*3d*5*0*19*5d5f*2*610*86*3m3v*2*3d3v*2*3d*5*0*19*5d5f*2*620*86*3m3d*3*3v*2*3d*5*0*19*5d5f*2*610*85*3q3m3d*3*3v*2*3d*5*0*19*5d5f*2*610*84*3q3v*7*3d*5*0*19*5d5f*2*610*83*3q3m3v*3*3w3v*3*3d*5*0*19*5d5f*2*610*83*3m*2*3v*7*3d*5*0*19*5d5f*2*610*83*3K*2*3v*2*3d*3*3v*2*3d*5*0*19*5p5f*2*610*83*3K*2*3v*2*3d*3*3v*2*3d*5*0*19*5y5v*2*5z0*83*3m*2*3v*7*3d*5*0*106*3p3m3v*3*3w3v*3*3d*5*0*107*3p3v*7*3d*5*0*108*3p3m3d*3*3K*2*3d*5*0*115*3g3d*4*0*116*3l3d*3*0*116*3j3d*3*0*117*3l3d*2*0*86*6:5w*3*680*26*3j3d*2*0*86*5i635v65610*115*5d6105e610*26*5x5w5{0*86*5h645w66610*26*5e5f610*6*5x5{0*78*695v*3*670*26*5e5f610*6*5y5z0*109*5e5f610*87*5x5{0*28*5e5f610*87*5y5z0*28*5y5v5z0*112*5x5{0*6*5x5{0*4*5x5w*2*5{0*79*5x5w*2*5{0*19*5i610*6*5y5z0*4*5q5f5g610*79*5i5g*2*610*19*5d610*3*5x5w5{0*6*5d5f5g610*79*5d5g*2*610*19*5p610*3*5e5f610*6*5d5f5g610*79*5d6365610*19*5y5z0*3*5e5f610*6*5d5f5g610*79*5d6466610*21*5x5{05e5f610*6*5d5f5g610*79*5d5g*2*610*17*6:680*2*5y5z05y5v5z0*3*5x5{05p5f5g610*79*5d5g*2*610*17*69670*11*5y5z05y5v*2*5z0*79*5h5g*2*610*116*5y5v*2*5z0*28*5x5w5{0*117*5e5g620*117*5e5g610*106*6:680*9*5y5v5z0*106*69670*336*6:680*3*6:680*113*69670*3*69670*12*6:680*107*6:680*9*69670*107*5q610*3*5x5w*7*5{0*106*5p610*3*5q5g*7*610*106*69670*3*5d5f*7*610*9*6:5w*2*680*98*5d5g*2*63655g*3*610*9*5e6365610*98*5d5g*2*64665g*3*610*9*5e615e610*93*6:680*3*5d5f*7*610*9*5e6466610*93*5q610*3*5p5g*7*610*9*695v*2*670*93*5p610*3*5y5v*7*5z0*106*69670*249*5x5{0*118*5y5z0*218*5x5{0*19*5x5{0*97*5e620*19*5y5z0*97*5y5z0*140*5x5{0*118*5y5z0*2*5x5{0*118*5e610*118*5e610*118*5e620*118*5e610*118*5y5z0*5313*~1,288,3484,0,0,Right|73,418,3520,Welcome%20to%20Space%20Rock%20Galaxy%21%0D%0DLots%20of%20red%20coins%20were%20scattered%20around%20here%2E%2E%2Emaybe%20they%20will%20activate%20a%20shine%20sprite%21%0D%0DTry%20to%20collect%20them%20all%21|9,159,3602,0,4,0,65,0,0,none,Up,0.5,45,6,Left,3,62,1|4,160,3552|3,192,3072|124,1812,2862,1,0|123,2328,2688,1,0|6,1185,3057|140,129,3308,1,50|140,158,3214,1,310|140,127,3124,1,55|9,639,3479,0,0,0,0,0,0,Right,none,0.5,100,6,Right,5,55,1|9,835,3408,0,0,0,0,0,0,Right,none,0.5,80,6,Left,3,55,1|9,685,3325,3,3,60,60,0,0,Right,Up,0.5,60,6,Left,3,72,1|35,1068,2864,1,0|35,1114,2864,1,0|140,1088,2897,1,0|51,1245,3094,1|52,1136,3086,1|27,1152,3012|26,1370,2992|3,513,2431|28,512,2497,1,0|56,236,2629,1|9,144,2601,0,3,0,40,0,0,none,Down,0.5,60,13,Left,0,,1|3,287,2623|4,80,2624|51,225,2737,1|51,301,2734,1|51,591,2630,1|51,432,2629,1|54,512,2741,1|53,576,2748,1|56,515,2576,1|77,0,2529|18,829,2908,2,0|18,-28,2915,2,0|18,387,2911,2,0|140,1162,2792,1,55|140,991,2793,1,275|3,1632,2494|8,1584,2930,3,2,60,5,1|18,1583,2931,3,0|124,361,3488,1,0|121,464,3501,1,0|122,214,3096,1,45|123,1186,3089,1,0|125,1406,2943,1,0|126,1212,2810,1,0|121,928,2812,1,0|145,1089,2851,1,0|7,1919,2913,0,4,0,55,0,0,none,Up,0.5,2,0,25|7,2167,2723,4,0,55,0,0,0,Left,none,0.5,2,0,25|9,2078,2846,0,0,0,0,0,0,Right,none,0.5,120,6,Right,3,0,1|9,1474,2035,0,0,0,0,0,0,Right,none,0.5,95,6,Right,3,50,1|8,1887,2433,2,3,65,0,1|3,1856,2274|3,1889,2117|3,1695,2116|13,1792,2182|10,1792,2249|28,63,3647,1,0|77,63,3635|3,929,3103|51,1472,2603,1|53,1133,2649,1|56,1184,2816,1|53,1425,2952,1|3,1585,2966|3,1920,2689|3,2111,2530|51,2273,2686,1|52,62,3338,1|3,1087,2818|77,849,2880|18,1727,1906,2,0|19,1917,1903,2,0|3,2127,1844|53,2127,1866,1|27,881,1905|115,804,1848,1,0|114,796,1801,1,0|113,796,1758,1,0|113,887,1671,1,0|114,887,1712,1,0|114,884,1766,0,0|114,887,1822,1,0|113,1008,1582,1,0|114,1007,1622,1,0|114,1004,1676,0,0|114,1007,1729,1,0|114,1006,1783,0,0|115,998,1828,0,0|115,970,1854,0,30|115,934,1871,1,95|113,887,1511,1,0|114,887,1553,1,0|114,887,1607,1,0|114,888,1629,0,0|3,887,1475|51,887,1648,1|51,1010,1559,1|53,795,1740,1|2,887,1624|123,1227,1904,1,0|124,1330,1898,1,10|126,1151,1904,1,355|3,1225,1883|52,1285,1896,1|56,1185,1895,1~14~13~Space%20Rock%20Galaxy&comment=Collect all the red coins in Space Rock Galaxy! <!-- s:) --><img src="{SMILIES_PATH}/icon_e_smile.png" alt=":)" title="Smile" /><!-- s:) -->
I added more stuff, so its more fun. <!-- s:D --><img src="{SMILIES_PATH}/icon_e_biggrin.png" alt=":D" title="Very Happy" /><!-- s:D -->
Enjoy! 
